G04 #@! TF.GenerationSoftware,KiCad,Pcbnew,5.0.2-bee76a0~70~ubuntu18.04.1*
G04 #@! TF.CreationDate,2019-08-02T15:49:20-04:00*
G04 #@! TF.ProjectId,socket_single_transamp_board_32_by_32_array,736f636b-6574-45f7-9369-6e676c655f74,rev?*
G04 #@! TF.SameCoordinates,Original*
G04 #@! TF.FileFunction,Profile,NP*
%FSLAX46Y46*%
G04 Gerber Fmt 4.6, Leading zero omitted, Abs format (unit mm)*
G04 Created by KiCad (PCBNEW 5.0.2-bee76a0~70~ubuntu18.04.1) date Fri 02 Aug 2019 03:49:20 PM EDT*
%MOMM*%
%LPD*%
G01*
G04 APERTURE LIST*
%ADD10C,0.200000*%
G04 APERTURE END LIST*
D10*
X203510000Y-45880000D02*
X95410000Y-45880000D01*
X95410000Y-160330000D02*
X95410000Y-45880000D01*
X203510000Y-160330000D02*
X95410000Y-160330000D01*
X203510000Y-160330000D02*
X203510000Y-45880000D01*
M02*
