EESchema Schematic File Version 4
LIBS:socket_transamp_board_32_by_32_array-cache
EELAYER 26 0
EELAYER END
$Descr A4 11693 8268
encoding utf-8
Sheet 3 18
Title ""
Date ""
Rev ""
Comp ""
Comment1 ""
Comment2 ""
Comment3 ""
Comment4 ""
$EndDescr
$Comp
L 2019-06-26_20-49-32:LMP2234BMTX_NOPB U2
U 1 1 5D13E356
P 7650 2650
AR Path="/5D16BC1F/5D1701D6/5D13E356" Ref="U2"  Part="1" 
AR Path="/5D16BC1F/5D1701E2/5D13E356" Ref="U3"  Part="1" 
AR Path="/5D16BC1F/5D1701F4/5D13E356" Ref="U?"  Part="1" 
AR Path="/5D16BC1F/5D1701FA/5D13E356" Ref="U4"  Part="1" 
AR Path="/5D16BC1F/5D170218/5D13E356" Ref="U5"  Part="1" 
AR Path="/5D16BC1F/5D17021E/5D13E356" Ref="U6"  Part="1" 
AR Path="/5D16BC1F/5D170224/5D13E356" Ref="U7"  Part="1" 
AR Path="/5D16BC1F/5D17022A/5D13E356" Ref="U8"  Part="1" 
AR Path="/5D16BC1F/5D170260/5D13E356" Ref="U9"  Part="1" 
AR Path="/5D16BC1F/5D170266/5D13E356" Ref="U10"  Part="1" 
AR Path="/5D16BC1F/5D17026C/5D13E356" Ref="U11"  Part="1" 
AR Path="/5D16BC1F/5D170272/5D13E356" Ref="U12"  Part="1" 
AR Path="/5D16BC1F/5D170278/5D13E356" Ref="U13"  Part="1" 
AR Path="/5D16BC1F/5D17027E/5D13E356" Ref="U14"  Part="1" 
AR Path="/5D16BC1F/5D170284/5D13E356" Ref="U15"  Part="1" 
AR Path="/5D16BC1F/5D17028A/5D13E356" Ref="U16"  Part="1" 
AR Path="/5D16BC1F/5D1BCC6F/5D13E356" Ref="U17"  Part="1" 
F 0 "U2" H 8450 3137 60  0000 C CNN
F 1 "LMP2234BMTX_NOPB" H 8450 3031 60  0000 C CNN
F 2 "footprints:LMP2234BMTX&slash_NOPB" H 8450 2990 60  0001 C CNN
F 3 "" H 7650 2650 60  0000 C CNN
	1    7650 2650
	1    0    0    -1  
$EndComp
Wire Wire Line
	7650 2950 7500 2950
Wire Wire Line
	7500 2950 7500 3050
Wire Wire Line
	7500 3050 7650 3050
Wire Wire Line
	7650 2650 7650 2050
Wire Wire Line
	7650 2050 9400 2050
Wire Wire Line
	9400 2550 9250 2550
Wire Wire Line
	7650 3300 7500 3300
Wire Wire Line
	7500 3300 7500 3400
Wire Wire Line
	7500 3400 7650 3400
Wire Wire Line
	7650 2750 7450 2750
Wire Wire Line
	7450 2750 7450 1550
$Comp
L power:GND #PWR0108
U 1 1 5D140EC2
P 8650 1850
AR Path="/5D16BC1F/5D1701D6/5D140EC2" Ref="#PWR0108"  Part="1" 
AR Path="/5D16BC1F/5D1701E2/5D140EC2" Ref="#PWR0112"  Part="1" 
AR Path="/5D16BC1F/5D1701F4/5D140EC2" Ref="#PWR?"  Part="1" 
AR Path="/5D16BC1F/5D1701FA/5D140EC2" Ref="#PWR0116"  Part="1" 
AR Path="/5D16BC1F/5D170218/5D140EC2" Ref="#PWR0120"  Part="1" 
AR Path="/5D16BC1F/5D17021E/5D140EC2" Ref="#PWR0124"  Part="1" 
AR Path="/5D16BC1F/5D170224/5D140EC2" Ref="#PWR0128"  Part="1" 
AR Path="/5D16BC1F/5D17022A/5D140EC2" Ref="#PWR0132"  Part="1" 
AR Path="/5D16BC1F/5D170260/5D140EC2" Ref="#PWR0136"  Part="1" 
AR Path="/5D16BC1F/5D170266/5D140EC2" Ref="#PWR0140"  Part="1" 
AR Path="/5D16BC1F/5D17026C/5D140EC2" Ref="#PWR0144"  Part="1" 
AR Path="/5D16BC1F/5D170272/5D140EC2" Ref="#PWR0148"  Part="1" 
AR Path="/5D16BC1F/5D170278/5D140EC2" Ref="#PWR0152"  Part="1" 
AR Path="/5D16BC1F/5D17027E/5D140EC2" Ref="#PWR0156"  Part="1" 
AR Path="/5D16BC1F/5D170284/5D140EC2" Ref="#PWR0160"  Part="1" 
AR Path="/5D16BC1F/5D17028A/5D140EC2" Ref="#PWR0164"  Part="1" 
AR Path="/5D16BC1F/5D1BCC6F/5D140EC2" Ref="#PWR0168"  Part="1" 
F 0 "#PWR0168" H 8650 1600 50  0001 C CNN
F 1 "GND" H 8850 1750 50  0000 C CNN
F 2 "" H 8650 1850 50  0001 C CNN
F 3 "" H 8650 1850 50  0001 C CNN
	1    8650 1850
	1    0    0    -1  
$EndComp
$Comp
L Device:R R16
U 1 1 5D140EC8
P 9300 1550
AR Path="/5D16BC1F/5D1701D6/5D140EC8" Ref="R16"  Part="1" 
AR Path="/5D16BC1F/5D1701E2/5D140EC8" Ref="R24"  Part="1" 
AR Path="/5D16BC1F/5D1701F4/5D140EC8" Ref="R?"  Part="1" 
AR Path="/5D16BC1F/5D1701FA/5D140EC8" Ref="R32"  Part="1" 
AR Path="/5D16BC1F/5D170218/5D140EC8" Ref="R40"  Part="1" 
AR Path="/5D16BC1F/5D17021E/5D140EC8" Ref="R48"  Part="1" 
AR Path="/5D16BC1F/5D170224/5D140EC8" Ref="R56"  Part="1" 
AR Path="/5D16BC1F/5D17022A/5D140EC8" Ref="R64"  Part="1" 
AR Path="/5D16BC1F/5D170260/5D140EC8" Ref="R72"  Part="1" 
AR Path="/5D16BC1F/5D170266/5D140EC8" Ref="R80"  Part="1" 
AR Path="/5D16BC1F/5D17026C/5D140EC8" Ref="R88"  Part="1" 
AR Path="/5D16BC1F/5D170272/5D140EC8" Ref="R96"  Part="1" 
AR Path="/5D16BC1F/5D170278/5D140EC8" Ref="R104"  Part="1" 
AR Path="/5D16BC1F/5D17027E/5D140EC8" Ref="R112"  Part="1" 
AR Path="/5D16BC1F/5D170284/5D140EC8" Ref="R120"  Part="1" 
AR Path="/5D16BC1F/5D17028A/5D140EC8" Ref="R128"  Part="1" 
AR Path="/5D16BC1F/5D1BCC6F/5D140EC8" Ref="R136"  Part="1" 
F 0 "R16" V 9093 1550 50  0000 C CNN
F 1 "R" V 9184 1550 50  0000 C CNN
F 2 "Resistor_SMD:R_0402_1005Metric" V 9230 1550 50  0001 C CNN
F 3 "~" H 9300 1550 50  0001 C CNN
	1    9300 1550
	0    1    1    0   
$EndComp
$Comp
L Device:C C6
U 1 1 5D140ECF
P 8200 1200
AR Path="/5D16BC1F/5D1701D6/5D140ECF" Ref="C6"  Part="1" 
AR Path="/5D16BC1F/5D1701E2/5D140ECF" Ref="C10"  Part="1" 
AR Path="/5D16BC1F/5D1701F4/5D140ECF" Ref="C?"  Part="1" 
AR Path="/5D16BC1F/5D1701FA/5D140ECF" Ref="C14"  Part="1" 
AR Path="/5D16BC1F/5D170218/5D140ECF" Ref="C18"  Part="1" 
AR Path="/5D16BC1F/5D17021E/5D140ECF" Ref="C22"  Part="1" 
AR Path="/5D16BC1F/5D170224/5D140ECF" Ref="C26"  Part="1" 
AR Path="/5D16BC1F/5D17022A/5D140ECF" Ref="C30"  Part="1" 
AR Path="/5D16BC1F/5D170260/5D140ECF" Ref="C34"  Part="1" 
AR Path="/5D16BC1F/5D170266/5D140ECF" Ref="C38"  Part="1" 
AR Path="/5D16BC1F/5D17026C/5D140ECF" Ref="C42"  Part="1" 
AR Path="/5D16BC1F/5D170272/5D140ECF" Ref="C46"  Part="1" 
AR Path="/5D16BC1F/5D170278/5D140ECF" Ref="C50"  Part="1" 
AR Path="/5D16BC1F/5D17027E/5D140ECF" Ref="C54"  Part="1" 
AR Path="/5D16BC1F/5D170284/5D140ECF" Ref="C58"  Part="1" 
AR Path="/5D16BC1F/5D17028A/5D140ECF" Ref="C62"  Part="1" 
AR Path="/5D16BC1F/5D1BCC6F/5D140ECF" Ref="C66"  Part="1" 
F 0 "C6" V 7948 1200 50  0000 C CNN
F 1 "C" V 8039 1200 50  0000 C CNN
F 2 "Capacitor_SMD:C_0402_1005Metric" H 8238 1050 50  0001 C CNN
F 3 "~" H 8200 1200 50  0001 C CNN
	1    8200 1200
	0    1    1    0   
$EndComp
Wire Wire Line
	9450 1550 9600 1550
$Comp
L Device:R R13
U 1 1 5D140ED9
P 8350 1550
AR Path="/5D16BC1F/5D1701D6/5D140ED9" Ref="R13"  Part="1" 
AR Path="/5D16BC1F/5D1701E2/5D140ED9" Ref="R21"  Part="1" 
AR Path="/5D16BC1F/5D1701F4/5D140ED9" Ref="R?"  Part="1" 
AR Path="/5D16BC1F/5D1701FA/5D140ED9" Ref="R29"  Part="1" 
AR Path="/5D16BC1F/5D170218/5D140ED9" Ref="R37"  Part="1" 
AR Path="/5D16BC1F/5D17021E/5D140ED9" Ref="R45"  Part="1" 
AR Path="/5D16BC1F/5D170224/5D140ED9" Ref="R53"  Part="1" 
AR Path="/5D16BC1F/5D17022A/5D140ED9" Ref="R61"  Part="1" 
AR Path="/5D16BC1F/5D170260/5D140ED9" Ref="R69"  Part="1" 
AR Path="/5D16BC1F/5D170266/5D140ED9" Ref="R77"  Part="1" 
AR Path="/5D16BC1F/5D17026C/5D140ED9" Ref="R85"  Part="1" 
AR Path="/5D16BC1F/5D170272/5D140ED9" Ref="R93"  Part="1" 
AR Path="/5D16BC1F/5D170278/5D140ED9" Ref="R101"  Part="1" 
AR Path="/5D16BC1F/5D17027E/5D140ED9" Ref="R109"  Part="1" 
AR Path="/5D16BC1F/5D170284/5D140ED9" Ref="R117"  Part="1" 
AR Path="/5D16BC1F/5D17028A/5D140ED9" Ref="R125"  Part="1" 
AR Path="/5D16BC1F/5D1BCC6F/5D140ED9" Ref="R133"  Part="1" 
F 0 "R13" V 8143 1550 50  0000 C CNN
F 1 "R" V 8234 1550 50  0000 C CNN
F 2 "Resistor_SMD:R_0402_1005Metric" V 8280 1550 50  0001 C CNN
F 3 "~" H 8350 1550 50  0001 C CNN
	1    8350 1550
	0    1    1    0   
$EndComp
Wire Wire Line
	8200 1550 7900 1550
$Comp
L Device:R R14
U 1 1 5D140EE1
P 8650 1700
AR Path="/5D16BC1F/5D1701D6/5D140EE1" Ref="R14"  Part="1" 
AR Path="/5D16BC1F/5D1701E2/5D140EE1" Ref="R22"  Part="1" 
AR Path="/5D16BC1F/5D1701F4/5D140EE1" Ref="R?"  Part="1" 
AR Path="/5D16BC1F/5D1701FA/5D140EE1" Ref="R30"  Part="1" 
AR Path="/5D16BC1F/5D170218/5D140EE1" Ref="R38"  Part="1" 
AR Path="/5D16BC1F/5D17021E/5D140EE1" Ref="R46"  Part="1" 
AR Path="/5D16BC1F/5D170224/5D140EE1" Ref="R54"  Part="1" 
AR Path="/5D16BC1F/5D17022A/5D140EE1" Ref="R62"  Part="1" 
AR Path="/5D16BC1F/5D170260/5D140EE1" Ref="R70"  Part="1" 
AR Path="/5D16BC1F/5D170266/5D140EE1" Ref="R78"  Part="1" 
AR Path="/5D16BC1F/5D17026C/5D140EE1" Ref="R86"  Part="1" 
AR Path="/5D16BC1F/5D170272/5D140EE1" Ref="R94"  Part="1" 
AR Path="/5D16BC1F/5D170278/5D140EE1" Ref="R102"  Part="1" 
AR Path="/5D16BC1F/5D17027E/5D140EE1" Ref="R110"  Part="1" 
AR Path="/5D16BC1F/5D170284/5D140EE1" Ref="R118"  Part="1" 
AR Path="/5D16BC1F/5D17028A/5D140EE1" Ref="R126"  Part="1" 
AR Path="/5D16BC1F/5D1BCC6F/5D140EE1" Ref="R134"  Part="1" 
F 0 "R14" H 8580 1654 50  0000 R CNN
F 1 "R" H 8580 1745 50  0000 R CNN
F 2 "Resistor_SMD:R_0402_1005Metric" V 8580 1700 50  0001 C CNN
F 3 "~" H 8650 1700 50  0001 C CNN
	1    8650 1700
	-1   0    0    1   
$EndComp
Connection ~ 8650 1550
Wire Wire Line
	8500 1550 8650 1550
Wire Wire Line
	7900 1550 7900 1200
Wire Wire Line
	7900 1200 8050 1200
Wire Wire Line
	8350 1200 8650 1200
Wire Wire Line
	8650 1200 8650 1550
Wire Wire Line
	8650 1550 9150 1550
Wire Wire Line
	9400 2050 9400 2550
Wire Wire Line
	7900 1550 7450 1550
Connection ~ 7900 1550
Wire Wire Line
	9250 2650 9600 2650
Wire Wire Line
	9600 2650 9600 1550
$Comp
L Device:R R9
U 1 1 5D14586D
P 6950 3100
AR Path="/5D16BC1F/5D1701D6/5D14586D" Ref="R9"  Part="1" 
AR Path="/5D16BC1F/5D1701E2/5D14586D" Ref="R17"  Part="1" 
AR Path="/5D16BC1F/5D1701F4/5D14586D" Ref="R?"  Part="1" 
AR Path="/5D16BC1F/5D1701FA/5D14586D" Ref="R25"  Part="1" 
AR Path="/5D16BC1F/5D170218/5D14586D" Ref="R33"  Part="1" 
AR Path="/5D16BC1F/5D17021E/5D14586D" Ref="R41"  Part="1" 
AR Path="/5D16BC1F/5D170224/5D14586D" Ref="R49"  Part="1" 
AR Path="/5D16BC1F/5D17022A/5D14586D" Ref="R57"  Part="1" 
AR Path="/5D16BC1F/5D170260/5D14586D" Ref="R65"  Part="1" 
AR Path="/5D16BC1F/5D170266/5D14586D" Ref="R73"  Part="1" 
AR Path="/5D16BC1F/5D17026C/5D14586D" Ref="R81"  Part="1" 
AR Path="/5D16BC1F/5D170272/5D14586D" Ref="R89"  Part="1" 
AR Path="/5D16BC1F/5D170278/5D14586D" Ref="R97"  Part="1" 
AR Path="/5D16BC1F/5D17027E/5D14586D" Ref="R105"  Part="1" 
AR Path="/5D16BC1F/5D170284/5D14586D" Ref="R113"  Part="1" 
AR Path="/5D16BC1F/5D17028A/5D14586D" Ref="R121"  Part="1" 
AR Path="/5D16BC1F/5D1BCC6F/5D14586D" Ref="R129"  Part="1" 
F 0 "R9" V 7020 3146 50  0000 L CNN
F 1 "R" H 7020 3055 50  0000 L CNN
F 2 "Resistor_SMD:R_0402_1005Metric" V 6880 3100 50  0001 C CNN
F 3 "~" H 6950 3100 50  0001 C CNN
	1    6950 3100
	1    0    0    -1  
$EndComp
$Comp
L Device:C C3
U 1 1 5D145874
P 6550 3100
AR Path="/5D16BC1F/5D1701D6/5D145874" Ref="C3"  Part="1" 
AR Path="/5D16BC1F/5D1701E2/5D145874" Ref="C7"  Part="1" 
AR Path="/5D16BC1F/5D1701F4/5D145874" Ref="C?"  Part="1" 
AR Path="/5D16BC1F/5D1701FA/5D145874" Ref="C11"  Part="1" 
AR Path="/5D16BC1F/5D170218/5D145874" Ref="C15"  Part="1" 
AR Path="/5D16BC1F/5D17021E/5D145874" Ref="C19"  Part="1" 
AR Path="/5D16BC1F/5D170224/5D145874" Ref="C23"  Part="1" 
AR Path="/5D16BC1F/5D17022A/5D145874" Ref="C27"  Part="1" 
AR Path="/5D16BC1F/5D170260/5D145874" Ref="C31"  Part="1" 
AR Path="/5D16BC1F/5D170266/5D145874" Ref="C35"  Part="1" 
AR Path="/5D16BC1F/5D17026C/5D145874" Ref="C39"  Part="1" 
AR Path="/5D16BC1F/5D170272/5D145874" Ref="C43"  Part="1" 
AR Path="/5D16BC1F/5D170278/5D145874" Ref="C47"  Part="1" 
AR Path="/5D16BC1F/5D17027E/5D145874" Ref="C51"  Part="1" 
AR Path="/5D16BC1F/5D170284/5D145874" Ref="C55"  Part="1" 
AR Path="/5D16BC1F/5D17028A/5D145874" Ref="C59"  Part="1" 
AR Path="/5D16BC1F/5D1BCC6F/5D145874" Ref="C63"  Part="1" 
F 0 "C3" H 6665 3146 50  0000 L CNN
F 1 "C" H 6665 3055 50  0000 L CNN
F 2 "Capacitor_SMD:C_0402_1005Metric" H 6588 2950 50  0001 C CNN
F 3 "~" H 6550 3100 50  0001 C CNN
	1    6550 3100
	1    0    0    -1  
$EndComp
Wire Wire Line
	6550 2950 6950 2950
Connection ~ 6950 2950
Wire Wire Line
	6950 2950 7500 2950
$Comp
L Device:R R10
U 1 1 5D149BA1
P 6950 3550
AR Path="/5D16BC1F/5D1701D6/5D149BA1" Ref="R10"  Part="1" 
AR Path="/5D16BC1F/5D1701E2/5D149BA1" Ref="R18"  Part="1" 
AR Path="/5D16BC1F/5D1701F4/5D149BA1" Ref="R?"  Part="1" 
AR Path="/5D16BC1F/5D1701FA/5D149BA1" Ref="R26"  Part="1" 
AR Path="/5D16BC1F/5D170218/5D149BA1" Ref="R34"  Part="1" 
AR Path="/5D16BC1F/5D17021E/5D149BA1" Ref="R42"  Part="1" 
AR Path="/5D16BC1F/5D170224/5D149BA1" Ref="R50"  Part="1" 
AR Path="/5D16BC1F/5D17022A/5D149BA1" Ref="R58"  Part="1" 
AR Path="/5D16BC1F/5D170260/5D149BA1" Ref="R66"  Part="1" 
AR Path="/5D16BC1F/5D170266/5D149BA1" Ref="R74"  Part="1" 
AR Path="/5D16BC1F/5D17026C/5D149BA1" Ref="R82"  Part="1" 
AR Path="/5D16BC1F/5D170272/5D149BA1" Ref="R90"  Part="1" 
AR Path="/5D16BC1F/5D170278/5D149BA1" Ref="R98"  Part="1" 
AR Path="/5D16BC1F/5D17027E/5D149BA1" Ref="R106"  Part="1" 
AR Path="/5D16BC1F/5D170284/5D149BA1" Ref="R114"  Part="1" 
AR Path="/5D16BC1F/5D17028A/5D149BA1" Ref="R122"  Part="1" 
AR Path="/5D16BC1F/5D1BCC6F/5D149BA1" Ref="R130"  Part="1" 
F 0 "R10" V 7020 3596 50  0000 L CNN
F 1 "R" H 7020 3505 50  0000 L CNN
F 2 "Resistor_SMD:R_0402_1005Metric" V 6880 3550 50  0001 C CNN
F 3 "~" H 6950 3550 50  0001 C CNN
	1    6950 3550
	1    0    0    -1  
$EndComp
$Comp
L Device:C C4
U 1 1 5D149BA8
P 6550 3550
AR Path="/5D16BC1F/5D1701D6/5D149BA8" Ref="C4"  Part="1" 
AR Path="/5D16BC1F/5D1701E2/5D149BA8" Ref="C8"  Part="1" 
AR Path="/5D16BC1F/5D1701F4/5D149BA8" Ref="C?"  Part="1" 
AR Path="/5D16BC1F/5D1701FA/5D149BA8" Ref="C12"  Part="1" 
AR Path="/5D16BC1F/5D170218/5D149BA8" Ref="C16"  Part="1" 
AR Path="/5D16BC1F/5D17021E/5D149BA8" Ref="C20"  Part="1" 
AR Path="/5D16BC1F/5D170224/5D149BA8" Ref="C24"  Part="1" 
AR Path="/5D16BC1F/5D17022A/5D149BA8" Ref="C28"  Part="1" 
AR Path="/5D16BC1F/5D170260/5D149BA8" Ref="C32"  Part="1" 
AR Path="/5D16BC1F/5D170266/5D149BA8" Ref="C36"  Part="1" 
AR Path="/5D16BC1F/5D17026C/5D149BA8" Ref="C40"  Part="1" 
AR Path="/5D16BC1F/5D170272/5D149BA8" Ref="C44"  Part="1" 
AR Path="/5D16BC1F/5D170278/5D149BA8" Ref="C48"  Part="1" 
AR Path="/5D16BC1F/5D17027E/5D149BA8" Ref="C52"  Part="1" 
AR Path="/5D16BC1F/5D170284/5D149BA8" Ref="C56"  Part="1" 
AR Path="/5D16BC1F/5D17028A/5D149BA8" Ref="C60"  Part="1" 
AR Path="/5D16BC1F/5D1BCC6F/5D149BA8" Ref="C64"  Part="1" 
F 0 "C4" H 6665 3596 50  0000 L CNN
F 1 "C" H 6665 3505 50  0000 L CNN
F 2 "Capacitor_SMD:C_0402_1005Metric" H 6588 3400 50  0001 C CNN
F 3 "~" H 6550 3550 50  0001 C CNN
	1    6550 3550
	1    0    0    -1  
$EndComp
Wire Wire Line
	6300 3250 6550 3250
Connection ~ 6550 3250
Wire Wire Line
	6550 3250 6950 3250
Wire Wire Line
	6950 3850 6950 3700
Wire Wire Line
	6550 3700 6550 3850
Wire Wire Line
	6550 3850 6950 3850
Wire Wire Line
	6300 3250 6300 3850
Wire Wire Line
	6300 3850 6550 3850
Connection ~ 6550 3850
Wire Wire Line
	6300 3850 6150 3850
Connection ~ 6300 3850
Wire Wire Line
	6550 3400 6950 3400
Connection ~ 7500 3400
Connection ~ 6950 3400
Wire Wire Line
	6950 3400 7500 3400
$Comp
L power:GND #PWR0109
U 1 1 5D14ECFB
P 7650 4050
AR Path="/5D16BC1F/5D1701D6/5D14ECFB" Ref="#PWR0109"  Part="1" 
AR Path="/5D16BC1F/5D1701E2/5D14ECFB" Ref="#PWR0113"  Part="1" 
AR Path="/5D16BC1F/5D1701F4/5D14ECFB" Ref="#PWR?"  Part="1" 
AR Path="/5D16BC1F/5D1701FA/5D14ECFB" Ref="#PWR0117"  Part="1" 
AR Path="/5D16BC1F/5D170218/5D14ECFB" Ref="#PWR0121"  Part="1" 
AR Path="/5D16BC1F/5D17021E/5D14ECFB" Ref="#PWR0125"  Part="1" 
AR Path="/5D16BC1F/5D170224/5D14ECFB" Ref="#PWR0129"  Part="1" 
AR Path="/5D16BC1F/5D17022A/5D14ECFB" Ref="#PWR0133"  Part="1" 
AR Path="/5D16BC1F/5D170260/5D14ECFB" Ref="#PWR0137"  Part="1" 
AR Path="/5D16BC1F/5D170266/5D14ECFB" Ref="#PWR0141"  Part="1" 
AR Path="/5D16BC1F/5D17026C/5D14ECFB" Ref="#PWR0145"  Part="1" 
AR Path="/5D16BC1F/5D170272/5D14ECFB" Ref="#PWR0149"  Part="1" 
AR Path="/5D16BC1F/5D170278/5D14ECFB" Ref="#PWR0153"  Part="1" 
AR Path="/5D16BC1F/5D17027E/5D14ECFB" Ref="#PWR0157"  Part="1" 
AR Path="/5D16BC1F/5D170284/5D14ECFB" Ref="#PWR0161"  Part="1" 
AR Path="/5D16BC1F/5D17028A/5D14ECFB" Ref="#PWR0165"  Part="1" 
AR Path="/5D16BC1F/5D1BCC6F/5D14ECFB" Ref="#PWR0169"  Part="1" 
F 0 "#PWR0169" H 7650 3800 50  0001 C CNN
F 1 "GND" H 7850 3950 50  0000 C CNN
F 2 "" H 7650 4050 50  0001 C CNN
F 3 "" H 7650 4050 50  0001 C CNN
	1    7650 4050
	1    0    0    -1  
$EndComp
$Comp
L power:+3.3V #PWR0110
U 1 1 5D152018
P 7650 3950
AR Path="/5D16BC1F/5D1701D6/5D152018" Ref="#PWR0110"  Part="1" 
AR Path="/5D16BC1F/5D1701E2/5D152018" Ref="#PWR0114"  Part="1" 
AR Path="/5D16BC1F/5D1701F4/5D152018" Ref="#PWR?"  Part="1" 
AR Path="/5D16BC1F/5D1701FA/5D152018" Ref="#PWR0118"  Part="1" 
AR Path="/5D16BC1F/5D170218/5D152018" Ref="#PWR0122"  Part="1" 
AR Path="/5D16BC1F/5D17021E/5D152018" Ref="#PWR0126"  Part="1" 
AR Path="/5D16BC1F/5D170224/5D152018" Ref="#PWR0130"  Part="1" 
AR Path="/5D16BC1F/5D17022A/5D152018" Ref="#PWR0134"  Part="1" 
AR Path="/5D16BC1F/5D170260/5D152018" Ref="#PWR0138"  Part="1" 
AR Path="/5D16BC1F/5D170266/5D152018" Ref="#PWR0142"  Part="1" 
AR Path="/5D16BC1F/5D17026C/5D152018" Ref="#PWR0146"  Part="1" 
AR Path="/5D16BC1F/5D170272/5D152018" Ref="#PWR0150"  Part="1" 
AR Path="/5D16BC1F/5D170278/5D152018" Ref="#PWR0154"  Part="1" 
AR Path="/5D16BC1F/5D17027E/5D152018" Ref="#PWR0158"  Part="1" 
AR Path="/5D16BC1F/5D170284/5D152018" Ref="#PWR0162"  Part="1" 
AR Path="/5D16BC1F/5D17028A/5D152018" Ref="#PWR0166"  Part="1" 
AR Path="/5D16BC1F/5D1BCC6F/5D152018" Ref="#PWR0170"  Part="1" 
F 0 "#PWR0170" H 7650 3800 50  0001 C CNN
F 1 "+3.3V" H 7665 4123 50  0000 C CNN
F 2 "" H 7650 3950 50  0001 C CNN
F 3 "" H 7650 3950 50  0001 C CNN
	1    7650 3950
	1    0    0    -1  
$EndComp
Wire Wire Line
	7650 3700 7450 3700
Wire Wire Line
	7450 3700 7450 4550
Wire Wire Line
	7450 4550 9350 4550
Wire Wire Line
	9350 4550 9350 2850
Wire Wire Line
	9350 2850 9250 2850
Wire Wire Line
	9250 2750 9600 2750
$Comp
L power:GND #PWR0111
U 1 1 5D155818
P 8100 5400
AR Path="/5D16BC1F/5D1701D6/5D155818" Ref="#PWR0111"  Part="1" 
AR Path="/5D16BC1F/5D1701E2/5D155818" Ref="#PWR0115"  Part="1" 
AR Path="/5D16BC1F/5D1701F4/5D155818" Ref="#PWR?"  Part="1" 
AR Path="/5D16BC1F/5D1701FA/5D155818" Ref="#PWR0119"  Part="1" 
AR Path="/5D16BC1F/5D170218/5D155818" Ref="#PWR0123"  Part="1" 
AR Path="/5D16BC1F/5D17021E/5D155818" Ref="#PWR0127"  Part="1" 
AR Path="/5D16BC1F/5D170224/5D155818" Ref="#PWR0131"  Part="1" 
AR Path="/5D16BC1F/5D17022A/5D155818" Ref="#PWR0135"  Part="1" 
AR Path="/5D16BC1F/5D170260/5D155818" Ref="#PWR0139"  Part="1" 
AR Path="/5D16BC1F/5D170266/5D155818" Ref="#PWR0143"  Part="1" 
AR Path="/5D16BC1F/5D17026C/5D155818" Ref="#PWR0147"  Part="1" 
AR Path="/5D16BC1F/5D170272/5D155818" Ref="#PWR0151"  Part="1" 
AR Path="/5D16BC1F/5D170278/5D155818" Ref="#PWR0155"  Part="1" 
AR Path="/5D16BC1F/5D17027E/5D155818" Ref="#PWR0159"  Part="1" 
AR Path="/5D16BC1F/5D170284/5D155818" Ref="#PWR0163"  Part="1" 
AR Path="/5D16BC1F/5D17028A/5D155818" Ref="#PWR0167"  Part="1" 
AR Path="/5D16BC1F/5D1BCC6F/5D155818" Ref="#PWR0171"  Part="1" 
F 0 "#PWR0171" H 8100 5150 50  0001 C CNN
F 1 "GND" H 8300 5300 50  0000 C CNN
F 2 "" H 8100 5400 50  0001 C CNN
F 3 "" H 8100 5400 50  0001 C CNN
	1    8100 5400
	1    0    0    -1  
$EndComp
$Comp
L Device:R R15
U 1 1 5D15581E
P 8750 5100
AR Path="/5D16BC1F/5D1701D6/5D15581E" Ref="R15"  Part="1" 
AR Path="/5D16BC1F/5D1701E2/5D15581E" Ref="R23"  Part="1" 
AR Path="/5D16BC1F/5D1701F4/5D15581E" Ref="R?"  Part="1" 
AR Path="/5D16BC1F/5D1701FA/5D15581E" Ref="R31"  Part="1" 
AR Path="/5D16BC1F/5D170218/5D15581E" Ref="R39"  Part="1" 
AR Path="/5D16BC1F/5D17021E/5D15581E" Ref="R47"  Part="1" 
AR Path="/5D16BC1F/5D170224/5D15581E" Ref="R55"  Part="1" 
AR Path="/5D16BC1F/5D17022A/5D15581E" Ref="R63"  Part="1" 
AR Path="/5D16BC1F/5D170260/5D15581E" Ref="R71"  Part="1" 
AR Path="/5D16BC1F/5D170266/5D15581E" Ref="R79"  Part="1" 
AR Path="/5D16BC1F/5D17026C/5D15581E" Ref="R87"  Part="1" 
AR Path="/5D16BC1F/5D170272/5D15581E" Ref="R95"  Part="1" 
AR Path="/5D16BC1F/5D170278/5D15581E" Ref="R103"  Part="1" 
AR Path="/5D16BC1F/5D17027E/5D15581E" Ref="R111"  Part="1" 
AR Path="/5D16BC1F/5D170284/5D15581E" Ref="R119"  Part="1" 
AR Path="/5D16BC1F/5D17028A/5D15581E" Ref="R127"  Part="1" 
AR Path="/5D16BC1F/5D1BCC6F/5D15581E" Ref="R135"  Part="1" 
F 0 "R15" V 8543 5100 50  0000 C CNN
F 1 "R" V 8634 5100 50  0000 C CNN
F 2 "Resistor_SMD:R_0402_1005Metric" V 8680 5100 50  0001 C CNN
F 3 "~" H 8750 5100 50  0001 C CNN
	1    8750 5100
	0    1    1    0   
$EndComp
$Comp
L Device:C C5
U 1 1 5D155825
P 7650 4750
AR Path="/5D16BC1F/5D1701D6/5D155825" Ref="C5"  Part="1" 
AR Path="/5D16BC1F/5D1701E2/5D155825" Ref="C9"  Part="1" 
AR Path="/5D16BC1F/5D1701F4/5D155825" Ref="C?"  Part="1" 
AR Path="/5D16BC1F/5D1701FA/5D155825" Ref="C13"  Part="1" 
AR Path="/5D16BC1F/5D170218/5D155825" Ref="C17"  Part="1" 
AR Path="/5D16BC1F/5D17021E/5D155825" Ref="C21"  Part="1" 
AR Path="/5D16BC1F/5D170224/5D155825" Ref="C25"  Part="1" 
AR Path="/5D16BC1F/5D17022A/5D155825" Ref="C29"  Part="1" 
AR Path="/5D16BC1F/5D170260/5D155825" Ref="C33"  Part="1" 
AR Path="/5D16BC1F/5D170266/5D155825" Ref="C37"  Part="1" 
AR Path="/5D16BC1F/5D17026C/5D155825" Ref="C41"  Part="1" 
AR Path="/5D16BC1F/5D170272/5D155825" Ref="C45"  Part="1" 
AR Path="/5D16BC1F/5D170278/5D155825" Ref="C49"  Part="1" 
AR Path="/5D16BC1F/5D17027E/5D155825" Ref="C53"  Part="1" 
AR Path="/5D16BC1F/5D170284/5D155825" Ref="C57"  Part="1" 
AR Path="/5D16BC1F/5D17028A/5D155825" Ref="C61"  Part="1" 
AR Path="/5D16BC1F/5D1BCC6F/5D155825" Ref="C65"  Part="1" 
F 0 "C5" V 7550 5050 50  0000 C CNN
F 1 "C" V 7550 4950 50  0000 C CNN
F 2 "Capacitor_SMD:C_0402_1005Metric" H 7688 4600 50  0001 C CNN
F 3 "~" H 7650 4750 50  0001 C CNN
	1    7650 4750
	0    1    1    0   
$EndComp
$Comp
L Device:R R11
U 1 1 5D15582D
P 7800 5100
AR Path="/5D16BC1F/5D1701D6/5D15582D" Ref="R11"  Part="1" 
AR Path="/5D16BC1F/5D1701E2/5D15582D" Ref="R19"  Part="1" 
AR Path="/5D16BC1F/5D1701F4/5D15582D" Ref="R?"  Part="1" 
AR Path="/5D16BC1F/5D1701FA/5D15582D" Ref="R27"  Part="1" 
AR Path="/5D16BC1F/5D170218/5D15582D" Ref="R35"  Part="1" 
AR Path="/5D16BC1F/5D17021E/5D15582D" Ref="R43"  Part="1" 
AR Path="/5D16BC1F/5D170224/5D15582D" Ref="R51"  Part="1" 
AR Path="/5D16BC1F/5D17022A/5D15582D" Ref="R59"  Part="1" 
AR Path="/5D16BC1F/5D170260/5D15582D" Ref="R67"  Part="1" 
AR Path="/5D16BC1F/5D170266/5D15582D" Ref="R75"  Part="1" 
AR Path="/5D16BC1F/5D17026C/5D15582D" Ref="R83"  Part="1" 
AR Path="/5D16BC1F/5D170272/5D15582D" Ref="R91"  Part="1" 
AR Path="/5D16BC1F/5D170278/5D15582D" Ref="R99"  Part="1" 
AR Path="/5D16BC1F/5D17027E/5D15582D" Ref="R107"  Part="1" 
AR Path="/5D16BC1F/5D170284/5D15582D" Ref="R115"  Part="1" 
AR Path="/5D16BC1F/5D17028A/5D15582D" Ref="R123"  Part="1" 
AR Path="/5D16BC1F/5D1BCC6F/5D15582D" Ref="R131"  Part="1" 
F 0 "R11" V 7593 5100 50  0000 C CNN
F 1 "R" V 7684 5100 50  0000 C CNN
F 2 "Resistor_SMD:R_0402_1005Metric" V 7730 5100 50  0001 C CNN
F 3 "~" H 7800 5100 50  0001 C CNN
	1    7800 5100
	0    1    1    0   
$EndComp
Wire Wire Line
	7650 5100 7350 5100
$Comp
L Device:R R12
U 1 1 5D155835
P 8100 5250
AR Path="/5D16BC1F/5D1701D6/5D155835" Ref="R12"  Part="1" 
AR Path="/5D16BC1F/5D1701E2/5D155835" Ref="R20"  Part="1" 
AR Path="/5D16BC1F/5D1701F4/5D155835" Ref="R?"  Part="1" 
AR Path="/5D16BC1F/5D1701FA/5D155835" Ref="R28"  Part="1" 
AR Path="/5D16BC1F/5D170218/5D155835" Ref="R36"  Part="1" 
AR Path="/5D16BC1F/5D17021E/5D155835" Ref="R44"  Part="1" 
AR Path="/5D16BC1F/5D170224/5D155835" Ref="R52"  Part="1" 
AR Path="/5D16BC1F/5D17022A/5D155835" Ref="R60"  Part="1" 
AR Path="/5D16BC1F/5D170260/5D155835" Ref="R68"  Part="1" 
AR Path="/5D16BC1F/5D170266/5D155835" Ref="R76"  Part="1" 
AR Path="/5D16BC1F/5D17026C/5D155835" Ref="R84"  Part="1" 
AR Path="/5D16BC1F/5D170272/5D155835" Ref="R92"  Part="1" 
AR Path="/5D16BC1F/5D170278/5D155835" Ref="R100"  Part="1" 
AR Path="/5D16BC1F/5D17027E/5D155835" Ref="R108"  Part="1" 
AR Path="/5D16BC1F/5D170284/5D155835" Ref="R116"  Part="1" 
AR Path="/5D16BC1F/5D17028A/5D155835" Ref="R124"  Part="1" 
AR Path="/5D16BC1F/5D1BCC6F/5D155835" Ref="R132"  Part="1" 
F 0 "R12" H 8030 5204 50  0000 R CNN
F 1 "R" H 8030 5295 50  0000 R CNN
F 2 "Resistor_SMD:R_0402_1005Metric" V 8030 5250 50  0001 C CNN
F 3 "~" H 8100 5250 50  0001 C CNN
	1    8100 5250
	-1   0    0    1   
$EndComp
Connection ~ 8100 5100
Wire Wire Line
	7950 5100 8100 5100
Wire Wire Line
	7350 4750 7500 4750
Wire Wire Line
	7800 4750 8100 4750
Wire Wire Line
	8100 4750 8100 5100
Wire Wire Line
	8100 5100 8600 5100
Wire Wire Line
	9600 2750 9600 5100
Wire Wire Line
	8900 5100 9600 5100
Wire Wire Line
	7650 3600 7350 3600
Wire Wire Line
	7350 3600 7350 4750
Connection ~ 7350 4750
Wire Wire Line
	7350 4750 7350 5100
Text GLabel 6150 3850 0    50   Input ~ 0
V_BIAS
Text HLabel 7450 2750 0    50   Input ~ 0
transamp_in_a
Text HLabel 7350 4750 0    50   Input ~ 0
transamp_in_b
Text HLabel 9600 2650 2    50   Output ~ 0
transamp_out_a
Text HLabel 9600 2850 2    50   Output ~ 0
transamp_out_b
$EndSCHEMATC
