"Source:","/home/nmg/Documents/CoolCAD/UV_32_by_32_readout_project_nevo_magnezi/kicad_files/photodiode_readout_circuit_rev2/arduino_shield_template.sch"
"Date:","Fri 17 May 2019 10:14:26 AM EDT"
"Tool:","Eeschema 5.0.2-bee76a0~70~ubuntu18.04.1"
"Generator:","/usr/share/kicad/plugins/bom_csv_grouped_by_value.py"
"Component Count:","83"

"Individual Components:"

"Item","Qty","Reference(s)","Value","LibPart","Footprint","Datasheet"
"","","C1","C","Device:C","Capacitor_SMD:C_0402_1005Metric","~"
"","","C2","C","Device:C","Capacitor_SMD:C_0402_1005Metric","~"
"","","C3","C","Device:C","Capacitor_SMD:C_0402_1005Metric","~"
"","","C4","C","Device:C","Capacitor_SMD:C_0402_1005Metric","~"
"","","C5","C","Device:C","Capacitor_SMD:C_0402_1005Metric","~"
"","","C6","C","Device:C","Capacitor_SMD:C_0402_1005Metric","~"
"","","C7","C","Device:C","Capacitor_SMD:C_0402_1005Metric","~"
"","","C8","C","Device:C","Capacitor_SMD:C_0402_1005Metric","~"
"","","C9","C","Device:C","Capacitor_SMD:C_0402_1005Metric","~"
"","","C10","C","Device:C","Capacitor_SMD:C_0402_1005Metric","~"
"","","C11","C","Device:C","Capacitor_SMD:C_0402_1005Metric","~"
"","","C12","C","Device:C","Capacitor_SMD:C_0402_1005Metric","~"
"","","C13","C","Device:C","Capacitor_SMD:C_0402_1005Metric","~"
"","","C14","C","Device:C","Capacitor_SMD:C_0402_1005Metric","~"
"","","C15","C","Device:C","Capacitor_SMD:C_0402_1005Metric","~"
"","","C16","C","Device:C","Capacitor_SMD:C_0402_1005Metric","~"
"","","C17","C","Device:C","Capacitor_SMD:C_0402_1005Metric","~"
"","","C18","C","Device:C","Capacitor_SMD:C_0402_1005Metric","~"
"","","C19","C","Device:C","Capacitor_SMD:C_0402_1005Metric","~"
"","","C20","C","Device:C","Capacitor_SMD:C_0402_1005Metric","~"
"","","C21","C","Device:C","Capacitor_SMD:C_0402_1005Metric","~"
"","","C22","C","Device:C","Capacitor_SMD:C_0402_1005Metric","~"
"","","C23","C","Device:C","Capacitor_SMD:C_0402_1005Metric","~"
"","","C24","C","Device:C","Capacitor_SMD:C_0402_1005Metric","~"
"","","C25","C","Device:C","Capacitor_SMD:C_0402_1005Metric","~"
"","","C26","C","Device:C","Capacitor_SMD:C_0402_1005Metric","~"
"","","C27","C","Device:C","Capacitor_SMD:C_0402_1005Metric","~"
"","","C28","C","Device:C","Capacitor_SMD:C_0402_1005Metric","~"
"","","C29","C","Device:C","Capacitor_SMD:C_0402_1005Metric","~"
"","","C30","C","Device:C","Capacitor_SMD:C_0402_1005Metric","~"
"","","C31","C","Device:C","Capacitor_SMD:C_0402_1005Metric","~"
"","","C32","C","Device:C","Capacitor_SMD:C_0402_1005Metric","~"
"","","C33","C","Device:C","Capacitor_SMD:C_0402_1005Metric","~"
"","","C34","C","Device:C","Capacitor_SMD:C_0402_1005Metric","~"
"","","C35","C","Device:C","Capacitor_SMD:C_0402_1005Metric","~"
"","","C36","C","Device:C","Capacitor_SMD:C_0402_1005Metric","~"
"","","C37","C","Device:C","Capacitor_SMD:C_0402_1005Metric","~"
"","","C38","C","Device:C","Capacitor_SMD:C_0402_1005Metric","~"
"","","C39","C","Device:C","Capacitor_SMD:C_0402_1005Metric","~"
"","","C40","C","Device:C","Capacitor_SMD:C_0402_1005Metric","~"
"","","C41","C","Device:C","Capacitor_SMD:C_0402_1005Metric","~"
"","","C42","C","Device:C","Capacitor_SMD:C_0402_1005Metric","~"
"","","C43","C","Device:C","Capacitor_SMD:C_0402_1005Metric","~"
"","","C44","C","Device:C","Capacitor_SMD:C_0402_1005Metric","~"
"","","C45","C","Device:C","Capacitor_SMD:C_0402_1005Metric","~"
"","","C46","C","Device:C","Capacitor_SMD:C_0402_1005Metric","~"
"","","C47","C","Device:C","Capacitor_SMD:C_0402_1005Metric","~"
"","","C48","C","Device:C","Capacitor_SMD:C_0402_1005Metric","~"
"","","C49","C","Device:C","Capacitor_SMD:C_0402_1005Metric","~"
"","","C50","C","Device:C","Capacitor_SMD:C_0402_1005Metric","~"
"","","C51","C","Device:C","Capacitor_SMD:C_0402_1005Metric","~"
"","","C52","C","Device:C","Capacitor_SMD:C_0402_1005Metric","~"
"","","P1","Power","Connector_Generic:Conn_01x08","Socket_Arduino_Uno:Socket_Strip_Arduino_1x08",""
"","","P2","Analog","Connector_Generic:Conn_01x06","Socket_Arduino_Uno:Socket_Strip_Arduino_1x06",""
"","","P3","Digital","Connector_Generic:Conn_01x10","Socket_Arduino_Uno:Socket_Strip_Arduino_1x10",""
"","","P4","Digital","Connector_Generic:Conn_01x08","Socket_Arduino_Uno:Socket_Strip_Arduino_1x08",""
"","","P5","CONN_01X01","Connector_Generic:Conn_01x01","Socket_Arduino_Uno:Arduino_1pin",""
"","","P6","CONN_01X01","Connector_Generic:Conn_01x01","Socket_Arduino_Uno:Arduino_1pin",""
"","","P7","CONN_01X01","Connector_Generic:Conn_01x01","Socket_Arduino_Uno:Arduino_1pin",""
"","","P8","CONN_01X01","Connector_Generic:Conn_01x01","Socket_Arduino_Uno:Arduino_1pin",""
"","","U2","photodiode_array","photodiode_readout_circuit:photodiode_array","Package_DFN_QFN2:QFN-64-1EP_9x9mm_P0.5mm_EP7.65x7.65mm",""
"","","U3","AD8608ARUZ-REEL","2019-04-26_19-51-24:AD8608ARUZ-REEL","footprints:AD8608ARUZ-REEL",""
"","","U4","ADG794BRQZ-REEL7","2019-04-26_20-18-08:ADG794BRQZ-REEL7","footprints:ADG794BRQZ-REEL7",""
"","","U6","AD8608ARUZ-REEL","2019-04-26_19-51-24:AD8608ARUZ-REEL","footprints:AD8608ARUZ-REEL",""
"","","U7","ADG794BRQZ-REEL7","2019-04-26_20-18-08:ADG794BRQZ-REEL7","footprints:ADG794BRQZ-REEL7",""
"","","U9","AD8608ARUZ-REEL","2019-04-26_19-51-24:AD8608ARUZ-REEL","footprints:AD8608ARUZ-REEL",""
"","","U10","ADG794BRQZ-REEL7","2019-04-26_20-18-08:ADG794BRQZ-REEL7","footprints:ADG794BRQZ-REEL7",""
"","","U12","AD8608ARUZ-REEL","2019-04-26_19-51-24:AD8608ARUZ-REEL","footprints:AD8608ARUZ-REEL",""
"","","U13","ADG794BRQZ-REEL7","2019-04-26_20-18-08:ADG794BRQZ-REEL7","footprints:ADG794BRQZ-REEL7",""
"","","U15","AD8608ARUZ-REEL","2019-04-26_19-51-24:AD8608ARUZ-REEL","footprints:AD8608ARUZ-REEL",""
"","","U16","ADG794BRQZ-REEL7","2019-04-26_20-18-08:ADG794BRQZ-REEL7","footprints:ADG794BRQZ-REEL7",""
"","","U18","AD8608ARUZ-REEL","2019-04-26_19-51-24:AD8608ARUZ-REEL","footprints:AD8608ARUZ-REEL",""
"","","U19","ADG794BRQZ-REEL7","2019-04-26_20-18-08:ADG794BRQZ-REEL7","footprints:ADG794BRQZ-REEL7",""
"","","U21","AD8608ARUZ-REEL","2019-04-26_19-51-24:AD8608ARUZ-REEL","footprints:AD8608ARUZ-REEL",""
"","","U22","ADG794BRQZ-REEL7","2019-04-26_20-18-08:ADG794BRQZ-REEL7","footprints:ADG794BRQZ-REEL7",""
"","","U24","AD8608ARUZ-REEL","2019-04-26_19-51-24:AD8608ARUZ-REEL","footprints:AD8608ARUZ-REEL",""
"","","U25","ADG794BRQZ-REEL7","2019-04-26_20-18-08:ADG794BRQZ-REEL7","footprints:ADG794BRQZ-REEL7",""
"","","U27","ADG732BCPZ","ADG732BCPZ:ADG732BCPZ","footprints:ADG732BCPZ",""
"","","U28","ISL84051IVZ","2019-04-26_21-34-18:ISL84051IVZ","footprints:ISL84051IVZ",""
"","","U29","ISL84051IVZ","2019-04-26_21-34-18:ISL84051IVZ","footprints:ISL84051IVZ",""
"","","U30","ISL84051IVZ","2019-04-26_21-34-18:ISL84051IVZ","footprints:ISL84051IVZ",""
"","","U31","ISL84051IVZ","2019-04-26_21-34-18:ISL84051IVZ","footprints:ISL84051IVZ",""
"","","U32","ISL84051IVZ","2019-04-26_21-34-18:ISL84051IVZ","footprints:ISL84051IVZ",""



"Collated Components:"

"Item","Qty","Reference(s)","Value","LibPart","Footprint","Datasheet"
"1","52","C1, C2, C3, C4, C5, C6, C7, C8, C9, C10, C11, C12, C13, C14, C15, C16, C17, C18, C19, C20, C21, C22, C23, C24, C25, C26, C27, C28, C29, C30, C31, C32, C33, C34, C35, C36, C37, C38, C39, C40, C41, C42, C43, C44, C45, C46, C47, C48, C49, C50, C51, C52","C","Device:C","Capacitor_SMD:C_0402_1005Metric","~"
"2","1","P1","Power","Connector_Generic:Conn_01x08","Socket_Arduino_Uno:Socket_Strip_Arduino_1x08",""
"3","1","P2","Analog","Connector_Generic:Conn_01x06","Socket_Arduino_Uno:Socket_Strip_Arduino_1x06",""
"4","1","P3","Digital","Connector_Generic:Conn_01x10","Socket_Arduino_Uno:Socket_Strip_Arduino_1x10",""
"5","1","P4","Digital","Connector_Generic:Conn_01x08","Socket_Arduino_Uno:Socket_Strip_Arduino_1x08",""
"6","4","P5, P6, P7, P8","CONN_01X01","Connector_Generic:Conn_01x01","Socket_Arduino_Uno:Arduino_1pin",""
"7","1","U2","photodiode_array","photodiode_readout_circuit:photodiode_array","Package_DFN_QFN2:QFN-64-1EP_9x9mm_P0.5mm_EP7.65x7.65mm",""
"8","8","U3, U6, U9, U12, U15, U18, U21, U24","AD8608ARUZ-REEL","2019-04-26_19-51-24:AD8608ARUZ-REEL","footprints:AD8608ARUZ-REEL",""
"9","8","U4, U7, U10, U13, U16, U19, U22, U25","ADG794BRQZ-REEL7","2019-04-26_20-18-08:ADG794BRQZ-REEL7","footprints:ADG794BRQZ-REEL7",""
"10","1","U27","ADG732BCPZ","ADG732BCPZ:ADG732BCPZ","footprints:ADG732BCPZ",""
"11","5","U28, U29, U30, U31, U32","ISL84051IVZ","2019-04-26_21-34-18:ISL84051IVZ","footprints:ISL84051IVZ",""
