EESchema Schematic File Version 4
LIBS:arduino_shield_template-cache
EELAYER 26 0
EELAYER END
$Descr A4 11693 8268
encoding utf-8
Sheet 1 6
Title ""
Date "lun. 30 mars 2015"
Rev ""
Comp ""
Comment1 ""
Comment2 ""
Comment3 ""
Comment4 ""
$EndDescr
Text Label 8900 2500 0    60   ~ 0
A0
Text Label 8900 2600 0    60   ~ 0
A1
Text Label 8150 2650 0    60   ~ 0
7
Text Label 8150 2750 0    60   ~ 0
8
Text Label 8150 2850 0    60   ~ 0
9(**)
Text Label 8150 2950 0    60   ~ 0
10(**/SS)
Text Label 8150 3050 0    60   ~ 0
11(**/MOSI)
Text Label 8150 3750 0    60   ~ 0
12(MISO)
NoConn ~ 9400 1600
Text Notes 10850 1000 0    60   ~ 0
Holes
Text Notes 8550 750  0    60   ~ 0
Shield for Arduino that uses\nthe same pin disposition\nlike "Uno" board Rev 3.
$Comp
L Connector_Generic:Conn_01x08 P1
U 1 1 56D70129
P 9600 1900
F 0 "P1" H 9600 2350 50  0000 C CNN
F 1 "Power" V 9700 1900 50  0000 C CNN
F 2 "Socket_Arduino_Uno:Socket_Strip_Arduino_1x08" V 9750 1900 20  0000 C CNN
F 3 "" H 9600 1900 50  0000 C CNN
	1    9600 1900
	1    0    0    -1  
$EndComp
$Comp
L power:+3.3V #PWR01
U 1 1 56D70538
P 9150 1450
F 0 "#PWR01" H 9150 1300 50  0001 C CNN
F 1 "+3.3V" V 9150 1700 50  0000 C CNN
F 2 "" H 9150 1450 50  0000 C CNN
F 3 "" H 9150 1450 50  0000 C CNN
	1    9150 1450
	1    0    0    -1  
$EndComp
$Comp
L power:GND #PWR03
U 1 1 56D70CC2
P 9300 3150
F 0 "#PWR03" H 9300 2900 50  0001 C CNN
F 1 "GND" H 9300 3000 50  0000 C CNN
F 2 "" H 9300 3150 50  0000 C CNN
F 3 "" H 9300 3150 50  0000 C CNN
	1    9300 3150
	1    0    0    -1  
$EndComp
$Comp
L power:GND #PWR04
U 1 1 56D70CFF
P 10300 3150
F 0 "#PWR04" H 10300 2900 50  0001 C CNN
F 1 "GND" H 10300 3000 50  0000 C CNN
F 2 "" H 10300 3150 50  0000 C CNN
F 3 "" H 10300 3150 50  0000 C CNN
	1    10300 3150
	1    0    0    -1  
$EndComp
$Comp
L Connector_Generic:Conn_01x06 P2
U 1 1 56D70DD8
P 9600 2700
F 0 "P2" H 9600 2300 50  0000 C CNN
F 1 "Analog" V 9700 2700 50  0000 C CNN
F 2 "Socket_Arduino_Uno:Socket_Strip_Arduino_1x06" V 9750 2750 20  0000 C CNN
F 3 "" H 9600 2700 50  0000 C CNN
	1    9600 2700
	1    0    0    -1  
$EndComp
$Comp
L Connector_Generic:Conn_01x01 P5
U 1 1 56D71177
P 10800 650
F 0 "P5" V 10900 650 50  0000 C CNN
F 1 "CONN_01X01" V 10900 650 50  0001 C CNN
F 2 "Socket_Arduino_Uno:Arduino_1pin" H 10721 724 20  0000 C CNN
F 3 "" H 10800 650 50  0000 C CNN
	1    10800 650 
	0    -1   -1   0   
$EndComp
$Comp
L Connector_Generic:Conn_01x01 P6
U 1 1 56D71274
P 10900 650
F 0 "P6" V 11000 650 50  0000 C CNN
F 1 "CONN_01X01" V 11000 650 50  0001 C CNN
F 2 "Socket_Arduino_Uno:Arduino_1pin" H 10900 650 20  0001 C CNN
F 3 "" H 10900 650 50  0000 C CNN
	1    10900 650 
	0    -1   -1   0   
$EndComp
$Comp
L Connector_Generic:Conn_01x01 P7
U 1 1 56D712A8
P 11000 650
F 0 "P7" V 11100 650 50  0000 C CNN
F 1 "CONN_01X01" V 11100 650 50  0001 C CNN
F 2 "Socket_Arduino_Uno:Arduino_1pin" V 11000 650 20  0001 C CNN
F 3 "" H 11000 650 50  0000 C CNN
	1    11000 650 
	0    -1   -1   0   
$EndComp
$Comp
L Connector_Generic:Conn_01x01 P8
U 1 1 56D712DB
P 11100 650
F 0 "P8" V 11200 650 50  0000 C CNN
F 1 "CONN_01X01" V 11200 650 50  0001 C CNN
F 2 "Socket_Arduino_Uno:Arduino_1pin" H 11024 572 20  0000 C CNN
F 3 "" H 11100 650 50  0000 C CNN
	1    11100 650 
	0    -1   -1   0   
$EndComp
$Comp
L Connector_Generic:Conn_01x08 P4
U 1 1 56D7164F
P 10000 2600
F 0 "P4" H 10000 2100 50  0000 C CNN
F 1 "Digital" V 10100 2600 50  0000 C CNN
F 2 "Socket_Arduino_Uno:Socket_Strip_Arduino_1x08" V 10150 2550 20  0000 C CNN
F 3 "" H 10000 2600 50  0000 C CNN
	1    10000 2600
	-1   0    0    -1  
$EndComp
Wire Notes Line
	8525 825  9925 825 
Wire Notes Line
	9925 825  9925 475 
Wire Wire Line
	9400 1900 9150 1900
Wire Wire Line
	9400 2100 9300 2100
Wire Wire Line
	9400 2200 9300 2200
Connection ~ 9300 2200
Wire Wire Line
	9150 1900 9150 1450
Wire Wire Line
	9400 2500 8900 2500
Wire Wire Line
	9400 2600 8900 2600
$Comp
L Connector_Generic:Conn_01x10 P3
U 1 1 56D721E0
P 10000 1600
F 0 "P3" H 10000 2150 50  0000 C CNN
F 1 "Digital" V 10100 1600 50  0000 C CNN
F 2 "Socket_Arduino_Uno:Socket_Strip_Arduino_1x10" V 10150 1600 20  0000 C CNN
F 3 "" H 10000 1600 50  0000 C CNN
	1    10000 1600
	-1   0    0    -1  
$EndComp
Wire Wire Line
	10200 1500 10300 1500
Wire Wire Line
	10300 1500 10300 3150
Wire Wire Line
	9300 2100 9300 2200
Wire Wire Line
	9300 2200 9300 3150
Wire Notes Line
	8500 500  8500 3450
Wire Notes Line
	8500 3450 11200 3450
Text Notes 9700 1600 0    60   ~ 0
1
Wire Notes Line
	11200 1000 10700 1000
Wire Notes Line
	10700 1000 10700 500 
Connection ~ 8150 3550
Wire Wire Line
	8150 3650 8150 3550
Wire Wire Line
	8150 3550 8150 3450
$Comp
L power:GND #PWR?
U 1 1 5CB280A2
P 8300 3350
AR Path="/5CB24539/5CB280A2" Ref="#PWR?"  Part="1" 
AR Path="/5CB280A2" Ref="#PWR0101"  Part="1" 
F 0 "#PWR0101" H 8300 3100 50  0001 C CNN
F 1 "GND" H 8305 3177 50  0000 C CNN
F 2 "" H 8300 3350 50  0001 C CNN
F 3 "" H 8300 3350 50  0001 C CNN
	1    8300 3350
	0    1    -1   0   
$EndComp
Text Label 8150 2350 0    50   ~ 0
A1
$Comp
L photodiode_readout_circuit:photodiode_array U2
U 1 1 5CB4A29D
P 3750 5850
F 0 "U2" H 3700 6000 50  0000 L CNN
F 1 "photodiode_array" H 3650 5900 50  0000 L CNN
F 2 "Package_DFN_QFN2:QFN-64-1EP_9x9mm_P0.5mm_EP7.65x7.65mm" H 4000 5750 50  0001 C CNN
F 3 "" H 4000 5750 50  0001 C CNN
	1    3750 5850
	1    0    0    -1  
$EndComp
Text Label 10400 3800 2    60   ~ 0
0(Rx)
Wire Wire Line
	8400 3350 8400 3550
Wire Wire Line
	8400 3550 8150 3550
Text GLabel 10500 3800 2    50   Input ~ 0
reset_op_amps
Wire Wire Line
	10500 3800 10400 3800
Text GLabel 10550 4100 2    50   Input ~ 0
bias_op_amps
Text Label 10250 4100 2    60   ~ 0
A0
Wire Wire Line
	10250 4100 10550 4100
Text Label 10600 2900 0    60   ~ 0
1(Tx)
Text Label 10600 2700 0    60   ~ 0
3(**)
Text Label 10600 2500 0    60   ~ 0
5(**)
Wire Wire Line
	10200 2900 10600 2900
Wire Wire Line
	10600 2700 10200 2700
Wire Wire Line
	10200 2500 10600 2500
Text Label 10600 2400 0    60   ~ 0
6(**)
Wire Wire Line
	10600 2400 10200 2400
Wire Wire Line
	10200 2600 10600 2600
Wire Wire Line
	10200 2800 10600 2800
Wire Wire Line
	10200 3000 10600 3000
Text Label 10600 2300 0    60   ~ 0
7
Text Label 10600 2100 0    60   ~ 0
8
Text Label 10600 2000 0    60   ~ 0
9(**)
Text Label 10600 1900 0    60   ~ 0
10(**/SS)
Text Label 10600 1800 0    60   ~ 0
11(**/MOSI)
Wire Wire Line
	10600 2100 10200 2100
Wire Wire Line
	10600 2000 10200 2000
Wire Wire Line
	10600 1900 10200 1900
Wire Wire Line
	10600 1800 10200 1800
Wire Wire Line
	10600 1700 10200 1700
Wire Wire Line
	10600 2300 10200 2300
Text Label 10600 1700 0    60   ~ 0
12(MISO)
Text Label 10600 3000 0    60   ~ 0
0(Rx)
Text Label 10600 2800 0    60   ~ 0
2
Text Label 10600 2600 0    60   ~ 0
4
Wire Wire Line
	8300 3350 8400 3350
NoConn ~ 9400 2700
NoConn ~ 9400 2800
NoConn ~ 9400 2900
NoConn ~ 9400 3000
NoConn ~ 9400 2000
NoConn ~ 9400 1800
NoConn ~ 9400 1700
NoConn ~ 10200 1200
NoConn ~ 10200 1300
NoConn ~ 10200 1400
NoConn ~ 10200 1600
NoConn ~ 9600 2050
NoConn ~ 9400 2300
$Sheet
S 850  4000 850  3700
U 5CC442EB
F0 "Row Select" 50
F1 "row_sel.sch" 50
F2 "R8" B R 1700 5000 50 
F3 "R1" B R 1700 4300 50 
F4 "R2" B R 1700 4400 50 
F5 "R3" B R 1700 4500 50 
F6 "R4" B R 1700 4600 50 
F7 "R5" B R 1700 4700 50 
F8 "R6" B R 1700 4800 50 
F9 "R7" B R 1700 4900 50 
F10 "R16" B R 1700 5800 50 
F11 "R9" B R 1700 5100 50 
F12 "R10" B R 1700 5200 50 
F13 "R11" B R 1700 5300 50 
F14 "R12" B R 1700 5400 50 
F15 "R13" B R 1700 5500 50 
F16 "R14" B R 1700 5600 50 
F17 "R15" B R 1700 5700 50 
F18 "R24" B R 1700 6600 50 
F19 "R17" B R 1700 5900 50 
F20 "R18" B R 1700 6000 50 
F21 "R19" B R 1700 6100 50 
F22 "R20" B R 1700 6200 50 
F23 "R21" B R 1700 6300 50 
F24 "R22" B R 1700 6400 50 
F25 "R23" B R 1700 6500 50 
F26 "R32" B R 1700 7400 50 
F27 "R25" B R 1700 6700 50 
F28 "R26" B R 1700 6800 50 
F29 "R27" B R 1700 6900 50 
F30 "R28" B R 1700 7000 50 
F31 "R29" B R 1700 7100 50 
F32 "R30" B R 1700 7200 50 
F33 "R31" B R 1700 7300 50 
F34 "SEL0" I L 850 5150 50 
F35 "SEL1" I L 850 5250 50 
F36 "SEL2" I L 850 5350 50 
F37 "SEL3" I L 850 5450 50 
F38 "SEL4" I L 850 5550 50 
F39 "EN_NOT" I L 850 5800 50 
$EndSheet
Text Label 850  5250 2    60   ~ 0
2
Text Label 850  5150 2    60   ~ 0
1(Tx)
Text Label 850  5350 2    60   ~ 0
3(**)
Text Label 850  5550 2    60   ~ 0
5(**)
Text Label 850  5800 2    60   ~ 0
6(**)
Text Label 850  5450 2    60   ~ 0
4
$Sheet
S 1800 3150 850  450 
U 5CB2800A
F0 "sheet5CB27FDD" 59
F1 "trans_impedance_amp_arr.sch" 20
F2 "N1" I B 1850 3600 50 
F3 "N2" I B 1950 3600 50 
F4 "N3" I B 2050 3600 50 
F5 "N4" I B 2150 3600 50 
F6 "O4" O T 2150 3150 50 
F7 "O3" O T 2050 3150 50 
F8 "O2" O T 1950 3150 50 
F9 "O1" O T 1850 3150 50 
F10 "O5" O T 2250 3150 50 
F11 "O6" O T 2350 3150 50 
F12 "O7" O T 2450 3150 50 
F13 "O8" O T 2550 3150 50 
F14 "N5" I B 2250 3600 50 
F15 "N6" I B 2350 3600 50 
F16 "N7" I B 2450 3600 50 
F17 "N8" I B 2550 3600 50 
$EndSheet
$Sheet
S 2950 3150 850  450 
U 5D160D66
F0 "sheet5D160D54" 20
F1 "trans_impedance_amp_arr.sch" 20
F2 "N1" I B 3000 3600 50 
F3 "N2" I B 3100 3600 50 
F4 "N3" I B 3200 3600 50 
F5 "N4" I B 3300 3600 50 
F6 "O4" O T 3300 3150 50 
F7 "O3" O T 3200 3150 50 
F8 "O2" O T 3100 3150 50 
F9 "O1" O T 3000 3150 50 
F10 "O5" O T 3400 3150 50 
F11 "O6" O T 3500 3150 50 
F12 "O7" O T 3600 3150 50 
F13 "O8" O T 3700 3150 50 
F14 "N5" I B 3400 3600 50 
F15 "N6" I B 3500 3600 50 
F16 "N7" I B 3600 3600 50 
F17 "N8" I B 3700 3600 50 
$EndSheet
$Sheet
S 3900 3150 850  450 
U 5D16695E
F0 "sheet5D16694C" 20
F1 "trans_impedance_amp_arr.sch" 20
F2 "N1" I B 3950 3600 50 
F3 "N2" I B 4050 3600 50 
F4 "N3" I B 4150 3600 50 
F5 "N4" I B 4250 3600 50 
F6 "O4" O T 4250 3150 50 
F7 "O3" O T 4150 3150 50 
F8 "O2" O T 4050 3150 50 
F9 "O1" O T 3950 3150 50 
F10 "O5" O T 4350 3150 50 
F11 "O6" O T 4450 3150 50 
F12 "O7" O T 4550 3150 50 
F13 "O8" O T 4650 3150 50 
F14 "N5" I B 4350 3600 50 
F15 "N6" I B 4450 3600 50 
F16 "N7" I B 4550 3600 50 
F17 "N8" I B 4650 3600 50 
$EndSheet
$Comp
L ADG732BCPZ:ADG732BCPZ U?
U 1 1 5CBB7408
P 8150 4050
AR Path="/5CB24539/5CBB7408" Ref="U?"  Part="1" 
AR Path="/5CBB7408" Ref="U27"  Part="1" 
F 0 "U27" H 8950 4537 60  0000 C CNN
F 1 "ADG732BCPZ" H 8950 4431 60  0000 C CNN
F 2 "footprints:ADG732BCPZ" H 8950 4390 60  0001 C CNN
F 3 "" H 8150 4050 60  0000 C CNN
	1    8150 4050
	-1   0    0    1   
$EndComp
$Sheet
S 4850 3150 850  450 
U 5D1EFE44
F0 "sheet5D1EFE32" 20
F1 "trans_impedance_amp_arr.sch" 20
F2 "N1" I B 4900 3600 50 
F3 "N2" I B 5000 3600 50 
F4 "N3" I B 5100 3600 50 
F5 "N4" I B 5200 3600 50 
F6 "O4" O T 5200 3150 50 
F7 "O3" O T 5100 3150 50 
F8 "O2" O T 5000 3150 50 
F9 "O1" O T 4900 3150 50 
F10 "O5" O T 5300 3150 50 
F11 "O6" O T 5400 3150 50 
F12 "O7" O T 5500 3150 50 
F13 "O8" O T 5600 3150 50 
F14 "N5" I B 5300 3600 50 
F15 "N6" I B 5400 3600 50 
F16 "N7" I B 5500 3600 50 
F17 "N8" I B 5600 3600 50 
$EndSheet
Wire Wire Line
	1700 4300 1950 4300
Wire Wire Line
	1700 4400 1950 4400
Wire Wire Line
	1700 4500 1950 4500
Wire Wire Line
	1700 4600 1950 4600
Wire Wire Line
	1700 4700 1950 4700
Wire Wire Line
	1700 4800 1950 4800
Wire Wire Line
	1700 4900 1950 4900
Wire Wire Line
	1700 5000 1950 5000
Wire Wire Line
	1700 5100 1950 5100
Wire Wire Line
	1700 5200 1950 5200
Wire Wire Line
	1700 5300 1950 5300
Wire Wire Line
	1700 5400 1950 5400
Wire Wire Line
	1700 5500 1950 5500
Wire Wire Line
	1700 5600 1950 5600
Wire Wire Line
	1700 5700 1950 5700
Wire Wire Line
	1700 5800 1950 5800
Wire Wire Line
	1700 5900 1950 5900
Wire Wire Line
	1700 6000 1950 6000
Wire Wire Line
	1700 6100 1950 6100
Wire Wire Line
	1700 6200 1950 6200
Wire Wire Line
	1700 6300 1950 6300
Wire Wire Line
	1700 6400 1950 6400
Wire Wire Line
	1700 6500 1950 6500
Wire Wire Line
	1700 6600 1950 6600
Wire Wire Line
	1700 6700 1950 6700
Wire Wire Line
	1700 6800 1950 6800
Wire Wire Line
	1700 6900 1950 6900
Wire Wire Line
	1700 7000 1950 7000
Wire Wire Line
	1700 7100 1950 7100
Wire Wire Line
	1700 7200 1950 7200
Wire Wire Line
	1700 7300 1950 7300
Wire Wire Line
	1700 7400 1950 7400
$Comp
L power:+3.3V #PWR02
U 1 1 5D305DF1
P 8800 5050
AR Path="/5D305DF1" Ref="#PWR02"  Part="1" 
AR Path="/5CC637E9/5D305DF1" Ref="#PWR?"  Part="1" 
AR Path="/5CB24539/5CC637E9/5D305DF1" Ref="#PWR?"  Part="1" 
AR Path="/5CB3ED8C/5D305DF1" Ref="#PWR?"  Part="1" 
F 0 "#PWR02" H 8800 4900 50  0001 C CNN
F 1 "+3.3V" H 8815 5223 50  0000 C CNN
F 2 "" H 8800 5050 50  0001 C CNN
F 3 "" H 8800 5050 50  0001 C CNN
	1    8800 5050
	1    0    0    -1  
$EndComp
Wire Wire Line
	9200 5100 8800 5100
Wire Wire Line
	8800 5100 8800 5050
$Comp
L power:+3.3V #PWR06
U 1 1 5D305DF9
P 10800 4850
AR Path="/5D305DF9" Ref="#PWR06"  Part="1" 
AR Path="/5CC637E9/5D305DF9" Ref="#PWR?"  Part="1" 
AR Path="/5CB24539/5CC637E9/5D305DF9" Ref="#PWR?"  Part="1" 
AR Path="/5CB3ED8C/5D305DF9" Ref="#PWR?"  Part="1" 
F 0 "#PWR06" H 10800 4700 50  0001 C CNN
F 1 "+3.3V" H 10815 5023 50  0000 C CNN
F 2 "" H 10800 4850 50  0001 C CNN
F 3 "" H 10800 4850 50  0001 C CNN
	1    10800 4850
	1    0    0    -1  
$EndComp
Wire Wire Line
	10800 4900 10800 4850
Wire Wire Line
	9200 5900 8900 5900
Wire Wire Line
	8900 5900 8900 6000
$Comp
L power:GND #PWR05
U 1 1 5D305E02
P 8900 6000
AR Path="/5D305E02" Ref="#PWR05"  Part="1" 
AR Path="/5CC637E9/5D305E02" Ref="#PWR?"  Part="1" 
AR Path="/5CB24539/5CC637E9/5D305E02" Ref="#PWR?"  Part="1" 
AR Path="/5CB3ED8C/5D305E02" Ref="#PWR?"  Part="1" 
F 0 "#PWR05" H 8900 5750 50  0001 C CNN
F 1 "GND" H 8905 5827 50  0000 C CNN
F 2 "" H 8900 6000 50  0001 C CNN
F 3 "" H 8900 6000 50  0001 C CNN
	1    8900 6000
	1    0    0    -1  
$EndComp
Wire Wire Line
	9200 6000 8900 6000
Connection ~ 8900 6000
NoConn ~ 9200 6400
NoConn ~ 9200 5300
NoConn ~ 9200 4800
$Comp
L ADG732BCPZ:ADG732BCPZ U27
U 2 1 5D305E0D
P 9200 4700
AR Path="/5D305E0D" Ref="U27"  Part="2" 
AR Path="/5CC637E9/5D305E0D" Ref="U?"  Part="2" 
AR Path="/5CB24539/5CC637E9/5D305E0D" Ref="U?"  Part="2" 
AR Path="/5CB3ED8C/5D305E0D" Ref="U?"  Part="2" 
F 0 "U27" H 10000 5087 60  0000 C CNN
F 1 "ADG732BCPZ" H 10000 4981 60  0000 C CNN
F 2 "footprints:ADG732BCPZ" H 10000 5040 60  0001 C CNN
F 3 "" H 9200 4700 60  0000 C CNN
	2    9200 4700
	1    0    0    -1  
$EndComp
NoConn ~ 3750 7650
NoConn ~ -2450 -2000
Wire Wire Line
	1850 3600 1850 4000
Wire Wire Line
	1850 4000 2200 4000
Wire Wire Line
	2300 4000 2300 3950
Wire Wire Line
	2300 3950 1950 3950
Wire Wire Line
	1950 3950 1950 3600
Wire Wire Line
	2050 3600 2050 3900
Wire Wire Line
	2050 3900 2400 3900
Wire Wire Line
	2400 3900 2400 4000
Wire Wire Line
	2500 4000 2500 3850
Wire Wire Line
	2500 3850 2150 3850
Wire Wire Line
	2150 3850 2150 3600
Wire Wire Line
	2250 3600 2250 3800
Wire Wire Line
	2250 3800 2600 3800
Wire Wire Line
	2600 3800 2600 4000
Wire Wire Line
	2700 4000 2700 3750
Wire Wire Line
	2700 3750 2350 3750
Wire Wire Line
	2350 3750 2350 3600
Wire Wire Line
	2450 3600 2450 3700
Wire Wire Line
	2450 3700 2800 3700
Wire Wire Line
	2800 3700 2800 4000
Wire Wire Line
	2900 4000 2900 3650
Wire Wire Line
	2900 3650 2550 3650
Wire Wire Line
	2550 3650 2550 3600
Wire Wire Line
	3000 4000 3000 3600
Wire Wire Line
	3100 4000 3100 3600
Wire Wire Line
	3200 4000 3200 3600
Wire Wire Line
	3300 4000 3300 3600
Wire Wire Line
	3400 4000 3400 3600
Wire Wire Line
	3500 4000 3500 3600
Wire Wire Line
	3600 4000 3600 3600
Wire Wire Line
	3700 4000 3700 3600
Wire Wire Line
	3900 4000 3900 3950
Wire Wire Line
	3900 3950 3950 3950
Wire Wire Line
	3950 3950 3950 3600
Wire Wire Line
	4050 3600 4050 3950
Wire Wire Line
	4050 3950 4000 3950
Wire Wire Line
	4000 3950 4000 4000
Wire Wire Line
	4100 4000 4100 3950
Wire Wire Line
	4100 3950 4150 3950
Wire Wire Line
	4150 3950 4150 3600
Wire Wire Line
	4250 3600 4250 3950
Wire Wire Line
	4250 3950 4200 3950
Wire Wire Line
	4200 3950 4200 4000
Wire Wire Line
	4300 4000 4300 3950
Wire Wire Line
	4300 3950 4350 3950
Wire Wire Line
	4350 3950 4350 3600
Wire Wire Line
	4450 3600 4450 3950
Wire Wire Line
	4450 3950 4400 3950
Wire Wire Line
	4400 3950 4400 4000
Wire Wire Line
	4500 4000 4500 3950
Wire Wire Line
	4500 3950 4550 3950
Wire Wire Line
	4550 3950 4550 3600
Wire Wire Line
	4650 3600 4650 3950
Wire Wire Line
	4650 3950 4600 3950
Wire Wire Line
	4600 3950 4600 4000
Wire Wire Line
	4700 4000 4700 3650
Wire Wire Line
	4700 3650 4900 3650
Wire Wire Line
	4900 3650 4900 3600
Wire Wire Line
	5000 3600 5000 3700
Wire Wire Line
	5000 3700 4800 3700
Wire Wire Line
	4800 3700 4800 4000
Wire Wire Line
	4900 4000 4900 3750
Wire Wire Line
	4900 3750 5100 3750
Wire Wire Line
	5100 3750 5100 3600
Wire Wire Line
	5200 3600 5200 3800
Wire Wire Line
	5200 3800 5000 3800
Wire Wire Line
	5000 3800 5000 4000
Wire Wire Line
	5100 4000 5100 3850
Wire Wire Line
	5100 3850 5300 3850
Wire Wire Line
	5300 3850 5300 3600
Wire Wire Line
	5200 4000 5200 3900
Wire Wire Line
	5200 3900 5400 3900
Wire Wire Line
	5400 3900 5400 3600
Wire Wire Line
	5300 4000 5300 3950
Wire Wire Line
	5300 3950 5500 3950
Wire Wire Line
	5500 3950 5500 3600
Wire Wire Line
	5400 4000 5600 4000
Wire Wire Line
	5600 4000 5600 3600
Wire Wire Line
	5800 3850 5800 3100
Wire Wire Line
	5800 3100 5600 3100
Wire Wire Line
	5600 3100 5600 3150
Wire Wire Line
	5400 3150 5400 3050
Wire Wire Line
	5400 3050 5850 3050
Wire Wire Line
	5850 3050 5850 3750
Wire Wire Line
	5900 3650 5900 3000
Wire Wire Line
	5900 3000 5200 3000
Wire Wire Line
	5200 3000 5200 3150
Wire Wire Line
	5000 3150 5000 2950
Wire Wire Line
	5000 2950 5950 2950
Wire Wire Line
	5950 2950 5950 3550
Wire Wire Line
	4650 3150 4650 2900
Wire Wire Line
	4650 2900 6000 2900
Wire Wire Line
	6000 2900 6000 3450
Wire Wire Line
	6050 3350 6050 2850
Wire Wire Line
	6050 2850 4450 2850
Wire Wire Line
	4450 2850 4450 3150
Wire Wire Line
	4250 3150 4250 2800
Wire Wire Line
	5800 3850 6550 3850
Wire Wire Line
	5850 3750 6550 3750
Wire Wire Line
	5900 3650 6550 3650
Wire Wire Line
	5950 3550 6550 3550
Wire Wire Line
	6000 3450 6550 3450
Wire Wire Line
	6050 3350 6550 3350
Wire Wire Line
	6550 3250 6100 3250
Wire Wire Line
	6100 3250 6100 2800
Wire Wire Line
	4250 2800 6100 2800
Wire Wire Line
	4050 3150 4050 2750
Wire Wire Line
	4050 2750 6150 2750
Wire Wire Line
	6150 2750 6150 3150
Wire Wire Line
	6150 3150 6550 3150
Wire Wire Line
	3700 3150 3700 2700
Wire Wire Line
	3700 2700 6200 2700
Wire Wire Line
	6200 2700 6200 3050
Wire Wire Line
	6200 3050 6550 3050
Wire Wire Line
	3500 3150 3500 2650
Wire Wire Line
	3500 2650 6250 2650
Wire Wire Line
	6250 2650 6250 2950
Wire Wire Line
	6250 2950 6550 2950
Wire Wire Line
	6550 2850 6300 2850
Wire Wire Line
	6300 2850 6300 2600
Wire Wire Line
	6300 2600 3300 2600
Wire Wire Line
	3300 2600 3300 3150
Wire Wire Line
	3100 3150 3100 2550
Wire Wire Line
	3100 2550 6350 2550
Wire Wire Line
	6350 2550 6350 2750
Wire Wire Line
	6350 2750 6550 2750
Wire Wire Line
	2550 3150 2550 2500
Wire Wire Line
	2550 2500 6400 2500
Wire Wire Line
	6400 2500 6400 2650
Wire Wire Line
	6400 2650 6550 2650
Wire Wire Line
	2350 3150 2350 2450
Wire Wire Line
	2350 2450 6450 2450
Wire Wire Line
	6450 2450 6450 2550
Wire Wire Line
	6450 2550 6550 2550
Wire Wire Line
	6550 2450 6500 2450
Wire Wire Line
	6500 2450 6500 2400
Wire Wire Line
	6500 2400 2150 2400
Wire Wire Line
	2150 2400 2150 3150
Wire Wire Line
	6550 2350 1950 2350
Wire Wire Line
	1950 2350 1950 3150
Wire Wire Line
	6550 1050 2450 1050
Wire Wire Line
	2450 1050 2450 3150
Wire Wire Line
	2250 3150 2250 950 
Wire Wire Line
	2250 950  6550 950 
Wire Wire Line
	6550 850  2050 850 
Wire Wire Line
	2050 850  2050 3150
Wire Wire Line
	1850 3150 1850 750 
Wire Wire Line
	1850 750  6550 750 
Wire Wire Line
	3000 3150 3000 1150
Wire Wire Line
	3000 1150 6550 1150
Wire Wire Line
	6550 1250 3200 1250
Wire Wire Line
	3200 1250 3200 3150
Wire Wire Line
	3400 3150 3400 1350
Wire Wire Line
	3400 1350 6550 1350
Wire Wire Line
	6550 1450 3600 1450
Wire Wire Line
	3600 1450 3600 3150
Wire Wire Line
	3950 3150 3950 1550
Wire Wire Line
	3950 1550 6550 1550
Wire Wire Line
	4150 3150 4150 1650
Wire Wire Line
	4150 1650 6550 1650
Wire Wire Line
	4350 3150 4350 1750
Wire Wire Line
	4350 1750 6550 1750
Wire Wire Line
	4550 3150 4550 1850
Wire Wire Line
	4550 1850 6550 1850
Wire Wire Line
	4900 3150 4900 1950
Wire Wire Line
	4900 1950 6550 1950
Wire Wire Line
	5100 3150 5100 2050
Wire Wire Line
	5100 2050 6550 2050
Wire Wire Line
	5300 3150 5300 2150
Wire Wire Line
	5300 2150 6550 2150
Wire Wire Line
	6550 2250 5500 2250
Wire Wire Line
	5500 2250 5500 3150
Wire Wire Line
	10800 850  10900 850 
Connection ~ 10900 850 
Wire Wire Line
	10900 850  11000 850 
Connection ~ 11000 850 
Wire Wire Line
	11000 850  11100 850 
$Comp
L power:GND #PWR047
U 1 1 5CD18CD2
P 10900 850
F 0 "#PWR047" H 10900 600 50  0001 C CNN
F 1 "GND" H 10800 800 50  0000 C CNN
F 2 "" H 10900 850 50  0001 C CNN
F 3 "" H 10900 850 50  0001 C CNN
	1    10900 850 
	1    0    0    -1  
$EndComp
$Comp
L power:+3.3V #PWR09
U 1 1 5CD3A743
P 5800 7050
AR Path="/5CD3A743" Ref="#PWR09"  Part="1" 
AR Path="/5CC637E9/5CD3A743" Ref="#PWR?"  Part="1" 
AR Path="/5CB24539/5CC637E9/5CD3A743" Ref="#PWR?"  Part="1" 
AR Path="/5CB3ED8C/5CD3A743" Ref="#PWR?"  Part="1" 
F 0 "#PWR09" H 5800 6900 50  0001 C CNN
F 1 "+3.3V" H 5815 7223 50  0000 C CNN
F 2 "" H 5800 7050 50  0001 C CNN
F 3 "" H 5800 7050 50  0001 C CNN
	1    5800 7050
	1    0    0    -1  
$EndComp
$Comp
L power:GND #PWR010
U 1 1 5CD4A25F
P 5800 7350
AR Path="/5CD4A25F" Ref="#PWR010"  Part="1" 
AR Path="/5CC637E9/5CD4A25F" Ref="#PWR?"  Part="1" 
AR Path="/5CB24539/5CC637E9/5CD4A25F" Ref="#PWR?"  Part="1" 
AR Path="/5CB3ED8C/5CD4A25F" Ref="#PWR?"  Part="1" 
F 0 "#PWR010" H 5800 7100 50  0001 C CNN
F 1 "GND" H 5805 7177 50  0000 C CNN
F 2 "" H 5800 7350 50  0001 C CNN
F 3 "" H 5800 7350 50  0001 C CNN
	1    5800 7350
	1    0    0    -1  
$EndComp
$Comp
L Device:C C34
U 1 1 5CD69E13
P 5800 7200
F 0 "C34" H 5915 7246 50  0000 L CNN
F 1 "C" H 5915 7155 50  0000 L CNN
F 2 "Capacitor_SMD:C_0402_1005Metric" H 5838 7050 50  0001 C CNN
F 3 "~" H 5800 7200 50  0001 C CNN
	1    5800 7200
	1    0    0    -1  
$EndComp
$Comp
L power:+3.3V #PWR015
U 1 1 5CD69F64
P 6100 7050
AR Path="/5CD69F64" Ref="#PWR015"  Part="1" 
AR Path="/5CC637E9/5CD69F64" Ref="#PWR?"  Part="1" 
AR Path="/5CB24539/5CC637E9/5CD69F64" Ref="#PWR?"  Part="1" 
AR Path="/5CB3ED8C/5CD69F64" Ref="#PWR?"  Part="1" 
F 0 "#PWR015" H 6100 6900 50  0001 C CNN
F 1 "+3.3V" H 6115 7223 50  0000 C CNN
F 2 "" H 6100 7050 50  0001 C CNN
F 3 "" H 6100 7050 50  0001 C CNN
	1    6100 7050
	1    0    0    -1  
$EndComp
$Comp
L power:GND #PWR016
U 1 1 5CD69F6A
P 6100 7350
AR Path="/5CD69F6A" Ref="#PWR016"  Part="1" 
AR Path="/5CC637E9/5CD69F6A" Ref="#PWR?"  Part="1" 
AR Path="/5CB24539/5CC637E9/5CD69F6A" Ref="#PWR?"  Part="1" 
AR Path="/5CB3ED8C/5CD69F6A" Ref="#PWR?"  Part="1" 
F 0 "#PWR016" H 6100 7100 50  0001 C CNN
F 1 "GND" H 6105 7177 50  0000 C CNN
F 2 "" H 6100 7350 50  0001 C CNN
F 3 "" H 6100 7350 50  0001 C CNN
	1    6100 7350
	1    0    0    -1  
$EndComp
$Comp
L Device:C C37
U 1 1 5CD69F70
P 6100 7200
F 0 "C37" H 6215 7246 50  0000 L CNN
F 1 "C" H 6215 7155 50  0000 L CNN
F 2 "Capacitor_SMD:C_0402_1005Metric" H 6138 7050 50  0001 C CNN
F 3 "~" H 6100 7200 50  0001 C CNN
	1    6100 7200
	1    0    0    -1  
$EndComp
$Comp
L power:+3.3V #PWR021
U 1 1 5CD79AF8
P 6450 7050
AR Path="/5CD79AF8" Ref="#PWR021"  Part="1" 
AR Path="/5CC637E9/5CD79AF8" Ref="#PWR?"  Part="1" 
AR Path="/5CB24539/5CC637E9/5CD79AF8" Ref="#PWR?"  Part="1" 
AR Path="/5CB3ED8C/5CD79AF8" Ref="#PWR?"  Part="1" 
F 0 "#PWR021" H 6450 6900 50  0001 C CNN
F 1 "+3.3V" H 6465 7223 50  0000 C CNN
F 2 "" H 6450 7050 50  0001 C CNN
F 3 "" H 6450 7050 50  0001 C CNN
	1    6450 7050
	1    0    0    -1  
$EndComp
$Comp
L power:GND #PWR022
U 1 1 5CD79AFE
P 6450 7350
AR Path="/5CD79AFE" Ref="#PWR022"  Part="1" 
AR Path="/5CC637E9/5CD79AFE" Ref="#PWR?"  Part="1" 
AR Path="/5CB24539/5CC637E9/5CD79AFE" Ref="#PWR?"  Part="1" 
AR Path="/5CB3ED8C/5CD79AFE" Ref="#PWR?"  Part="1" 
F 0 "#PWR022" H 6450 7100 50  0001 C CNN
F 1 "GND" H 6455 7177 50  0000 C CNN
F 2 "" H 6450 7350 50  0001 C CNN
F 3 "" H 6450 7350 50  0001 C CNN
	1    6450 7350
	1    0    0    -1  
$EndComp
$Comp
L Device:C C40
U 1 1 5CD79B04
P 6450 7200
F 0 "C40" H 6565 7246 50  0000 L CNN
F 1 "C" H 6565 7155 50  0000 L CNN
F 2 "Capacitor_SMD:C_0402_1005Metric" H 6488 7050 50  0001 C CNN
F 3 "~" H 6450 7200 50  0001 C CNN
	1    6450 7200
	1    0    0    -1  
$EndComp
$Comp
L power:+3.3V #PWR027
U 1 1 5CD79B0B
P 6750 7050
AR Path="/5CD79B0B" Ref="#PWR027"  Part="1" 
AR Path="/5CC637E9/5CD79B0B" Ref="#PWR?"  Part="1" 
AR Path="/5CB24539/5CC637E9/5CD79B0B" Ref="#PWR?"  Part="1" 
AR Path="/5CB3ED8C/5CD79B0B" Ref="#PWR?"  Part="1" 
F 0 "#PWR027" H 6750 6900 50  0001 C CNN
F 1 "+3.3V" H 6765 7223 50  0000 C CNN
F 2 "" H 6750 7050 50  0001 C CNN
F 3 "" H 6750 7050 50  0001 C CNN
	1    6750 7050
	1    0    0    -1  
$EndComp
$Comp
L power:GND #PWR028
U 1 1 5CD79B11
P 6750 7350
AR Path="/5CD79B11" Ref="#PWR028"  Part="1" 
AR Path="/5CC637E9/5CD79B11" Ref="#PWR?"  Part="1" 
AR Path="/5CB24539/5CC637E9/5CD79B11" Ref="#PWR?"  Part="1" 
AR Path="/5CB3ED8C/5CD79B11" Ref="#PWR?"  Part="1" 
F 0 "#PWR028" H 6750 7100 50  0001 C CNN
F 1 "GND" H 6755 7177 50  0000 C CNN
F 2 "" H 6750 7350 50  0001 C CNN
F 3 "" H 6750 7350 50  0001 C CNN
	1    6750 7350
	1    0    0    -1  
$EndComp
$Comp
L Device:C C43
U 1 1 5CD79B17
P 6750 7200
F 0 "C43" H 6865 7246 50  0000 L CNN
F 1 "C" H 6865 7155 50  0000 L CNN
F 2 "Capacitor_SMD:C_0402_1005Metric" H 6788 7050 50  0001 C CNN
F 3 "~" H 6750 7200 50  0001 C CNN
	1    6750 7200
	1    0    0    -1  
$EndComp
$Comp
L power:+3.3V #PWR07
U 1 1 5CD89707
P 5800 6200
AR Path="/5CD89707" Ref="#PWR07"  Part="1" 
AR Path="/5CC637E9/5CD89707" Ref="#PWR?"  Part="1" 
AR Path="/5CB24539/5CC637E9/5CD89707" Ref="#PWR?"  Part="1" 
AR Path="/5CB3ED8C/5CD89707" Ref="#PWR?"  Part="1" 
F 0 "#PWR07" H 5800 6050 50  0001 C CNN
F 1 "+3.3V" H 5815 6373 50  0000 C CNN
F 2 "" H 5800 6200 50  0001 C CNN
F 3 "" H 5800 6200 50  0001 C CNN
	1    5800 6200
	1    0    0    -1  
$EndComp
$Comp
L power:GND #PWR08
U 1 1 5CD8970D
P 5800 6500
AR Path="/5CD8970D" Ref="#PWR08"  Part="1" 
AR Path="/5CC637E9/5CD8970D" Ref="#PWR?"  Part="1" 
AR Path="/5CB24539/5CC637E9/5CD8970D" Ref="#PWR?"  Part="1" 
AR Path="/5CB3ED8C/5CD8970D" Ref="#PWR?"  Part="1" 
F 0 "#PWR08" H 5800 6250 50  0001 C CNN
F 1 "GND" H 5805 6327 50  0000 C CNN
F 2 "" H 5800 6500 50  0001 C CNN
F 3 "" H 5800 6500 50  0001 C CNN
	1    5800 6500
	1    0    0    -1  
$EndComp
$Comp
L Device:C C33
U 1 1 5CD89713
P 5800 6350
F 0 "C33" H 5915 6396 50  0000 L CNN
F 1 "C" H 5915 6305 50  0000 L CNN
F 2 "Capacitor_SMD:C_0402_1005Metric" H 5838 6200 50  0001 C CNN
F 3 "~" H 5800 6350 50  0001 C CNN
	1    5800 6350
	1    0    0    -1  
$EndComp
$Comp
L power:+3.3V #PWR013
U 1 1 5CD8971A
P 6100 6200
AR Path="/5CD8971A" Ref="#PWR013"  Part="1" 
AR Path="/5CC637E9/5CD8971A" Ref="#PWR?"  Part="1" 
AR Path="/5CB24539/5CC637E9/5CD8971A" Ref="#PWR?"  Part="1" 
AR Path="/5CB3ED8C/5CD8971A" Ref="#PWR?"  Part="1" 
F 0 "#PWR013" H 6100 6050 50  0001 C CNN
F 1 "+3.3V" H 6115 6373 50  0000 C CNN
F 2 "" H 6100 6200 50  0001 C CNN
F 3 "" H 6100 6200 50  0001 C CNN
	1    6100 6200
	1    0    0    -1  
$EndComp
$Comp
L power:GND #PWR014
U 1 1 5CD89720
P 6100 6500
AR Path="/5CD89720" Ref="#PWR014"  Part="1" 
AR Path="/5CC637E9/5CD89720" Ref="#PWR?"  Part="1" 
AR Path="/5CB24539/5CC637E9/5CD89720" Ref="#PWR?"  Part="1" 
AR Path="/5CB3ED8C/5CD89720" Ref="#PWR?"  Part="1" 
F 0 "#PWR014" H 6100 6250 50  0001 C CNN
F 1 "GND" H 6105 6327 50  0000 C CNN
F 2 "" H 6100 6500 50  0001 C CNN
F 3 "" H 6100 6500 50  0001 C CNN
	1    6100 6500
	1    0    0    -1  
$EndComp
$Comp
L Device:C C36
U 1 1 5CD89726
P 6100 6350
F 0 "C36" H 6215 6396 50  0000 L CNN
F 1 "C" H 6215 6305 50  0000 L CNN
F 2 "Capacitor_SMD:C_0402_1005Metric" H 6138 6200 50  0001 C CNN
F 3 "~" H 6100 6350 50  0001 C CNN
	1    6100 6350
	1    0    0    -1  
$EndComp
$Comp
L power:+3.3V #PWR019
U 1 1 5CD8972D
P 6450 6200
AR Path="/5CD8972D" Ref="#PWR019"  Part="1" 
AR Path="/5CC637E9/5CD8972D" Ref="#PWR?"  Part="1" 
AR Path="/5CB24539/5CC637E9/5CD8972D" Ref="#PWR?"  Part="1" 
AR Path="/5CB3ED8C/5CD8972D" Ref="#PWR?"  Part="1" 
F 0 "#PWR019" H 6450 6050 50  0001 C CNN
F 1 "+3.3V" H 6465 6373 50  0000 C CNN
F 2 "" H 6450 6200 50  0001 C CNN
F 3 "" H 6450 6200 50  0001 C CNN
	1    6450 6200
	1    0    0    -1  
$EndComp
$Comp
L power:GND #PWR020
U 1 1 5CD89733
P 6450 6500
AR Path="/5CD89733" Ref="#PWR020"  Part="1" 
AR Path="/5CC637E9/5CD89733" Ref="#PWR?"  Part="1" 
AR Path="/5CB24539/5CC637E9/5CD89733" Ref="#PWR?"  Part="1" 
AR Path="/5CB3ED8C/5CD89733" Ref="#PWR?"  Part="1" 
F 0 "#PWR020" H 6450 6250 50  0001 C CNN
F 1 "GND" H 6455 6327 50  0000 C CNN
F 2 "" H 6450 6500 50  0001 C CNN
F 3 "" H 6450 6500 50  0001 C CNN
	1    6450 6500
	1    0    0    -1  
$EndComp
$Comp
L Device:C C39
U 1 1 5CD89739
P 6450 6350
F 0 "C39" H 6565 6396 50  0000 L CNN
F 1 "C" H 6565 6305 50  0000 L CNN
F 2 "Capacitor_SMD:C_0402_1005Metric" H 6488 6200 50  0001 C CNN
F 3 "~" H 6450 6350 50  0001 C CNN
	1    6450 6350
	1    0    0    -1  
$EndComp
$Comp
L power:+3.3V #PWR025
U 1 1 5CD89740
P 6750 6200
AR Path="/5CD89740" Ref="#PWR025"  Part="1" 
AR Path="/5CC637E9/5CD89740" Ref="#PWR?"  Part="1" 
AR Path="/5CB24539/5CC637E9/5CD89740" Ref="#PWR?"  Part="1" 
AR Path="/5CB3ED8C/5CD89740" Ref="#PWR?"  Part="1" 
F 0 "#PWR025" H 6750 6050 50  0001 C CNN
F 1 "+3.3V" H 6765 6373 50  0000 C CNN
F 2 "" H 6750 6200 50  0001 C CNN
F 3 "" H 6750 6200 50  0001 C CNN
	1    6750 6200
	1    0    0    -1  
$EndComp
$Comp
L power:GND #PWR026
U 1 1 5CD89746
P 6750 6500
AR Path="/5CD89746" Ref="#PWR026"  Part="1" 
AR Path="/5CC637E9/5CD89746" Ref="#PWR?"  Part="1" 
AR Path="/5CB24539/5CC637E9/5CD89746" Ref="#PWR?"  Part="1" 
AR Path="/5CB3ED8C/5CD89746" Ref="#PWR?"  Part="1" 
F 0 "#PWR026" H 6750 6250 50  0001 C CNN
F 1 "GND" H 6755 6327 50  0000 C CNN
F 2 "" H 6750 6500 50  0001 C CNN
F 3 "" H 6750 6500 50  0001 C CNN
	1    6750 6500
	1    0    0    -1  
$EndComp
$Comp
L Device:C C42
U 1 1 5CD8974C
P 6750 6350
F 0 "C42" H 6865 6396 50  0000 L CNN
F 1 "C" H 6865 6305 50  0000 L CNN
F 2 "Capacitor_SMD:C_0402_1005Metric" H 6788 6200 50  0001 C CNN
F 3 "~" H 6750 6350 50  0001 C CNN
	1    6750 6350
	1    0    0    -1  
$EndComp
$Comp
L power:+3.3V #PWR033
U 1 1 5CD9952D
P 7250 5850
AR Path="/5CD9952D" Ref="#PWR033"  Part="1" 
AR Path="/5CC637E9/5CD9952D" Ref="#PWR?"  Part="1" 
AR Path="/5CB24539/5CC637E9/5CD9952D" Ref="#PWR?"  Part="1" 
AR Path="/5CB3ED8C/5CD9952D" Ref="#PWR?"  Part="1" 
F 0 "#PWR033" H 7250 5700 50  0001 C CNN
F 1 "+3.3V" H 7265 6023 50  0000 C CNN
F 2 "" H 7250 5850 50  0001 C CNN
F 3 "" H 7250 5850 50  0001 C CNN
	1    7250 5850
	1    0    0    -1  
$EndComp
$Comp
L power:GND #PWR034
U 1 1 5CD99533
P 7250 6150
AR Path="/5CD99533" Ref="#PWR034"  Part="1" 
AR Path="/5CC637E9/5CD99533" Ref="#PWR?"  Part="1" 
AR Path="/5CB24539/5CC637E9/5CD99533" Ref="#PWR?"  Part="1" 
AR Path="/5CB3ED8C/5CD99533" Ref="#PWR?"  Part="1" 
F 0 "#PWR034" H 7250 5900 50  0001 C CNN
F 1 "GND" H 7255 5977 50  0000 C CNN
F 2 "" H 7250 6150 50  0001 C CNN
F 3 "" H 7250 6150 50  0001 C CNN
	1    7250 6150
	1    0    0    -1  
$EndComp
$Comp
L Device:C C46
U 1 1 5CD99539
P 7250 6000
F 0 "C46" H 7365 6046 50  0000 L CNN
F 1 "C" H 7365 5955 50  0000 L CNN
F 2 "Capacitor_SMD:C_0402_1005Metric" H 7288 5850 50  0001 C CNN
F 3 "~" H 7250 6000 50  0001 C CNN
	1    7250 6000
	1    0    0    -1  
$EndComp
$Comp
L power:+3.3V #PWR037
U 1 1 5CD99540
P 7550 5850
AR Path="/5CD99540" Ref="#PWR037"  Part="1" 
AR Path="/5CC637E9/5CD99540" Ref="#PWR?"  Part="1" 
AR Path="/5CB24539/5CC637E9/5CD99540" Ref="#PWR?"  Part="1" 
AR Path="/5CB3ED8C/5CD99540" Ref="#PWR?"  Part="1" 
F 0 "#PWR037" H 7550 5700 50  0001 C CNN
F 1 "+3.3V" H 7565 6023 50  0000 C CNN
F 2 "" H 7550 5850 50  0001 C CNN
F 3 "" H 7550 5850 50  0001 C CNN
	1    7550 5850
	1    0    0    -1  
$EndComp
$Comp
L power:GND #PWR038
U 1 1 5CD99546
P 7550 6150
AR Path="/5CD99546" Ref="#PWR038"  Part="1" 
AR Path="/5CC637E9/5CD99546" Ref="#PWR?"  Part="1" 
AR Path="/5CB24539/5CC637E9/5CD99546" Ref="#PWR?"  Part="1" 
AR Path="/5CB3ED8C/5CD99546" Ref="#PWR?"  Part="1" 
F 0 "#PWR038" H 7550 5900 50  0001 C CNN
F 1 "GND" H 7555 5977 50  0000 C CNN
F 2 "" H 7550 6150 50  0001 C CNN
F 3 "" H 7550 6150 50  0001 C CNN
	1    7550 6150
	1    0    0    -1  
$EndComp
$Comp
L Device:C C48
U 1 1 5CD9954C
P 7550 6000
F 0 "C48" H 7665 6046 50  0000 L CNN
F 1 "C" H 7665 5955 50  0000 L CNN
F 2 "Capacitor_SMD:C_0402_1005Metric" H 7588 5850 50  0001 C CNN
F 3 "~" H 7550 6000 50  0001 C CNN
	1    7550 6000
	1    0    0    -1  
$EndComp
$Comp
L power:+3.3V #PWR041
U 1 1 5CD99553
P 7900 5850
AR Path="/5CD99553" Ref="#PWR041"  Part="1" 
AR Path="/5CC637E9/5CD99553" Ref="#PWR?"  Part="1" 
AR Path="/5CB24539/5CC637E9/5CD99553" Ref="#PWR?"  Part="1" 
AR Path="/5CB3ED8C/5CD99553" Ref="#PWR?"  Part="1" 
F 0 "#PWR041" H 7900 5700 50  0001 C CNN
F 1 "+3.3V" H 7915 6023 50  0000 C CNN
F 2 "" H 7900 5850 50  0001 C CNN
F 3 "" H 7900 5850 50  0001 C CNN
	1    7900 5850
	1    0    0    -1  
$EndComp
$Comp
L power:GND #PWR042
U 1 1 5CD99559
P 7900 6150
AR Path="/5CD99559" Ref="#PWR042"  Part="1" 
AR Path="/5CC637E9/5CD99559" Ref="#PWR?"  Part="1" 
AR Path="/5CB24539/5CC637E9/5CD99559" Ref="#PWR?"  Part="1" 
AR Path="/5CB3ED8C/5CD99559" Ref="#PWR?"  Part="1" 
F 0 "#PWR042" H 7900 5900 50  0001 C CNN
F 1 "GND" H 7905 5977 50  0000 C CNN
F 2 "" H 7900 6150 50  0001 C CNN
F 3 "" H 7900 6150 50  0001 C CNN
	1    7900 6150
	1    0    0    -1  
$EndComp
$Comp
L Device:C C50
U 1 1 5CD9955F
P 7900 6000
F 0 "C50" H 8015 6046 50  0000 L CNN
F 1 "C" H 8015 5955 50  0000 L CNN
F 2 "Capacitor_SMD:C_0402_1005Metric" H 7938 5850 50  0001 C CNN
F 3 "~" H 7900 6000 50  0001 C CNN
	1    7900 6000
	1    0    0    -1  
$EndComp
$Comp
L power:+3.3V #PWR045
U 1 1 5CD99566
P 8200 5850
AR Path="/5CD99566" Ref="#PWR045"  Part="1" 
AR Path="/5CC637E9/5CD99566" Ref="#PWR?"  Part="1" 
AR Path="/5CB24539/5CC637E9/5CD99566" Ref="#PWR?"  Part="1" 
AR Path="/5CB3ED8C/5CD99566" Ref="#PWR?"  Part="1" 
F 0 "#PWR045" H 8200 5700 50  0001 C CNN
F 1 "+3.3V" H 8215 6023 50  0000 C CNN
F 2 "" H 8200 5850 50  0001 C CNN
F 3 "" H 8200 5850 50  0001 C CNN
	1    8200 5850
	1    0    0    -1  
$EndComp
$Comp
L power:GND #PWR046
U 1 1 5CD9956C
P 8200 6150
AR Path="/5CD9956C" Ref="#PWR046"  Part="1" 
AR Path="/5CC637E9/5CD9956C" Ref="#PWR?"  Part="1" 
AR Path="/5CB24539/5CC637E9/5CD9956C" Ref="#PWR?"  Part="1" 
AR Path="/5CB3ED8C/5CD9956C" Ref="#PWR?"  Part="1" 
F 0 "#PWR046" H 8200 5900 50  0001 C CNN
F 1 "GND" H 8205 5977 50  0000 C CNN
F 2 "" H 8200 6150 50  0001 C CNN
F 3 "" H 8200 6150 50  0001 C CNN
	1    8200 6150
	1    0    0    -1  
$EndComp
$Comp
L Device:C C52
U 1 1 5CD99572
P 8200 6000
F 0 "C52" H 8315 6046 50  0000 L CNN
F 1 "C" H 8315 5955 50  0000 L CNN
F 2 "Capacitor_SMD:C_0402_1005Metric" H 8238 5850 50  0001 C CNN
F 3 "~" H 8200 6000 50  0001 C CNN
	1    8200 6000
	1    0    0    -1  
$EndComp
$Comp
L power:+3.3V #PWR031
U 1 1 5CD99579
P 7250 5000
AR Path="/5CD99579" Ref="#PWR031"  Part="1" 
AR Path="/5CC637E9/5CD99579" Ref="#PWR?"  Part="1" 
AR Path="/5CB24539/5CC637E9/5CD99579" Ref="#PWR?"  Part="1" 
AR Path="/5CB3ED8C/5CD99579" Ref="#PWR?"  Part="1" 
F 0 "#PWR031" H 7250 4850 50  0001 C CNN
F 1 "+3.3V" H 7265 5173 50  0000 C CNN
F 2 "" H 7250 5000 50  0001 C CNN
F 3 "" H 7250 5000 50  0001 C CNN
	1    7250 5000
	1    0    0    -1  
$EndComp
$Comp
L power:GND #PWR032
U 1 1 5CD9957F
P 7250 5300
AR Path="/5CD9957F" Ref="#PWR032"  Part="1" 
AR Path="/5CC637E9/5CD9957F" Ref="#PWR?"  Part="1" 
AR Path="/5CB24539/5CC637E9/5CD9957F" Ref="#PWR?"  Part="1" 
AR Path="/5CB3ED8C/5CD9957F" Ref="#PWR?"  Part="1" 
F 0 "#PWR032" H 7250 5050 50  0001 C CNN
F 1 "GND" H 7255 5127 50  0000 C CNN
F 2 "" H 7250 5300 50  0001 C CNN
F 3 "" H 7250 5300 50  0001 C CNN
	1    7250 5300
	1    0    0    -1  
$EndComp
$Comp
L Device:C C45
U 1 1 5CD99585
P 7250 5150
F 0 "C45" H 7365 5196 50  0000 L CNN
F 1 "C" H 7365 5105 50  0000 L CNN
F 2 "Capacitor_SMD:C_0402_1005Metric" H 7288 5000 50  0001 C CNN
F 3 "~" H 7250 5150 50  0001 C CNN
	1    7250 5150
	1    0    0    -1  
$EndComp
$Comp
L power:+3.3V #PWR035
U 1 1 5CD9958C
P 7550 5000
AR Path="/5CD9958C" Ref="#PWR035"  Part="1" 
AR Path="/5CC637E9/5CD9958C" Ref="#PWR?"  Part="1" 
AR Path="/5CB24539/5CC637E9/5CD9958C" Ref="#PWR?"  Part="1" 
AR Path="/5CB3ED8C/5CD9958C" Ref="#PWR?"  Part="1" 
F 0 "#PWR035" H 7550 4850 50  0001 C CNN
F 1 "+3.3V" H 7565 5173 50  0000 C CNN
F 2 "" H 7550 5000 50  0001 C CNN
F 3 "" H 7550 5000 50  0001 C CNN
	1    7550 5000
	1    0    0    -1  
$EndComp
$Comp
L power:GND #PWR036
U 1 1 5CD99592
P 7550 5300
AR Path="/5CD99592" Ref="#PWR036"  Part="1" 
AR Path="/5CC637E9/5CD99592" Ref="#PWR?"  Part="1" 
AR Path="/5CB24539/5CC637E9/5CD99592" Ref="#PWR?"  Part="1" 
AR Path="/5CB3ED8C/5CD99592" Ref="#PWR?"  Part="1" 
F 0 "#PWR036" H 7550 5050 50  0001 C CNN
F 1 "GND" H 7555 5127 50  0000 C CNN
F 2 "" H 7550 5300 50  0001 C CNN
F 3 "" H 7550 5300 50  0001 C CNN
	1    7550 5300
	1    0    0    -1  
$EndComp
$Comp
L Device:C C47
U 1 1 5CD99598
P 7550 5150
F 0 "C47" H 7665 5196 50  0000 L CNN
F 1 "C" H 7665 5105 50  0000 L CNN
F 2 "Capacitor_SMD:C_0402_1005Metric" H 7588 5000 50  0001 C CNN
F 3 "~" H 7550 5150 50  0001 C CNN
	1    7550 5150
	1    0    0    -1  
$EndComp
$Comp
L power:+3.3V #PWR039
U 1 1 5CD9959F
P 7900 5000
AR Path="/5CD9959F" Ref="#PWR039"  Part="1" 
AR Path="/5CC637E9/5CD9959F" Ref="#PWR?"  Part="1" 
AR Path="/5CB24539/5CC637E9/5CD9959F" Ref="#PWR?"  Part="1" 
AR Path="/5CB3ED8C/5CD9959F" Ref="#PWR?"  Part="1" 
F 0 "#PWR039" H 7900 4850 50  0001 C CNN
F 1 "+3.3V" H 7915 5173 50  0000 C CNN
F 2 "" H 7900 5000 50  0001 C CNN
F 3 "" H 7900 5000 50  0001 C CNN
	1    7900 5000
	1    0    0    -1  
$EndComp
$Comp
L power:GND #PWR040
U 1 1 5CD995A5
P 7900 5300
AR Path="/5CD995A5" Ref="#PWR040"  Part="1" 
AR Path="/5CC637E9/5CD995A5" Ref="#PWR?"  Part="1" 
AR Path="/5CB24539/5CC637E9/5CD995A5" Ref="#PWR?"  Part="1" 
AR Path="/5CB3ED8C/5CD995A5" Ref="#PWR?"  Part="1" 
F 0 "#PWR040" H 7900 5050 50  0001 C CNN
F 1 "GND" H 7905 5127 50  0000 C CNN
F 2 "" H 7900 5300 50  0001 C CNN
F 3 "" H 7900 5300 50  0001 C CNN
	1    7900 5300
	1    0    0    -1  
$EndComp
$Comp
L Device:C C49
U 1 1 5CD995AB
P 7900 5150
F 0 "C49" H 8015 5196 50  0000 L CNN
F 1 "C" H 8015 5105 50  0000 L CNN
F 2 "Capacitor_SMD:C_0402_1005Metric" H 7938 5000 50  0001 C CNN
F 3 "~" H 7900 5150 50  0001 C CNN
	1    7900 5150
	1    0    0    -1  
$EndComp
$Comp
L power:+3.3V #PWR043
U 1 1 5CD995B2
P 8200 5000
AR Path="/5CD995B2" Ref="#PWR043"  Part="1" 
AR Path="/5CC637E9/5CD995B2" Ref="#PWR?"  Part="1" 
AR Path="/5CB24539/5CC637E9/5CD995B2" Ref="#PWR?"  Part="1" 
AR Path="/5CB3ED8C/5CD995B2" Ref="#PWR?"  Part="1" 
F 0 "#PWR043" H 8200 4850 50  0001 C CNN
F 1 "+3.3V" H 8215 5173 50  0000 C CNN
F 2 "" H 8200 5000 50  0001 C CNN
F 3 "" H 8200 5000 50  0001 C CNN
	1    8200 5000
	1    0    0    -1  
$EndComp
$Comp
L power:GND #PWR044
U 1 1 5CD995B8
P 8200 5300
AR Path="/5CD995B8" Ref="#PWR044"  Part="1" 
AR Path="/5CC637E9/5CD995B8" Ref="#PWR?"  Part="1" 
AR Path="/5CB24539/5CC637E9/5CD995B8" Ref="#PWR?"  Part="1" 
AR Path="/5CB3ED8C/5CD995B8" Ref="#PWR?"  Part="1" 
F 0 "#PWR044" H 8200 5050 50  0001 C CNN
F 1 "GND" H 8205 5127 50  0000 C CNN
F 2 "" H 8200 5300 50  0001 C CNN
F 3 "" H 8200 5300 50  0001 C CNN
	1    8200 5300
	1    0    0    -1  
$EndComp
$Comp
L Device:C C51
U 1 1 5CD995BE
P 8200 5150
F 0 "C51" H 8315 5196 50  0000 L CNN
F 1 "C" H 8315 5105 50  0000 L CNN
F 2 "Capacitor_SMD:C_0402_1005Metric" H 8238 5000 50  0001 C CNN
F 3 "~" H 8200 5150 50  0001 C CNN
	1    8200 5150
	1    0    0    -1  
$EndComp
$Comp
L power:+3.3V #PWR011
U 1 1 5CDA9202
P 5850 5400
AR Path="/5CDA9202" Ref="#PWR011"  Part="1" 
AR Path="/5CC637E9/5CDA9202" Ref="#PWR?"  Part="1" 
AR Path="/5CB24539/5CC637E9/5CDA9202" Ref="#PWR?"  Part="1" 
AR Path="/5CB3ED8C/5CDA9202" Ref="#PWR?"  Part="1" 
F 0 "#PWR011" H 5850 5250 50  0001 C CNN
F 1 "+3.3V" H 5865 5573 50  0000 C CNN
F 2 "" H 5850 5400 50  0001 C CNN
F 3 "" H 5850 5400 50  0001 C CNN
	1    5850 5400
	1    0    0    -1  
$EndComp
$Comp
L power:GND #PWR012
U 1 1 5CDA9208
P 5850 5700
AR Path="/5CDA9208" Ref="#PWR012"  Part="1" 
AR Path="/5CC637E9/5CDA9208" Ref="#PWR?"  Part="1" 
AR Path="/5CB24539/5CC637E9/5CDA9208" Ref="#PWR?"  Part="1" 
AR Path="/5CB3ED8C/5CDA9208" Ref="#PWR?"  Part="1" 
F 0 "#PWR012" H 5850 5450 50  0001 C CNN
F 1 "GND" H 5855 5527 50  0000 C CNN
F 2 "" H 5850 5700 50  0001 C CNN
F 3 "" H 5850 5700 50  0001 C CNN
	1    5850 5700
	1    0    0    -1  
$EndComp
$Comp
L Device:C C35
U 1 1 5CDA920E
P 5850 5550
F 0 "C35" H 5965 5596 50  0000 L CNN
F 1 "C" H 5965 5505 50  0000 L CNN
F 2 "Capacitor_SMD:C_0402_1005Metric" H 5888 5400 50  0001 C CNN
F 3 "~" H 5850 5550 50  0001 C CNN
	1    5850 5550
	1    0    0    -1  
$EndComp
$Comp
L power:+3.3V #PWR017
U 1 1 5CDA9215
P 6150 5400
AR Path="/5CDA9215" Ref="#PWR017"  Part="1" 
AR Path="/5CC637E9/5CDA9215" Ref="#PWR?"  Part="1" 
AR Path="/5CB24539/5CC637E9/5CDA9215" Ref="#PWR?"  Part="1" 
AR Path="/5CB3ED8C/5CDA9215" Ref="#PWR?"  Part="1" 
F 0 "#PWR017" H 6150 5250 50  0001 C CNN
F 1 "+3.3V" H 6165 5573 50  0000 C CNN
F 2 "" H 6150 5400 50  0001 C CNN
F 3 "" H 6150 5400 50  0001 C CNN
	1    6150 5400
	1    0    0    -1  
$EndComp
$Comp
L power:GND #PWR018
U 1 1 5CDA921B
P 6150 5700
AR Path="/5CDA921B" Ref="#PWR018"  Part="1" 
AR Path="/5CC637E9/5CDA921B" Ref="#PWR?"  Part="1" 
AR Path="/5CB24539/5CC637E9/5CDA921B" Ref="#PWR?"  Part="1" 
AR Path="/5CB3ED8C/5CDA921B" Ref="#PWR?"  Part="1" 
F 0 "#PWR018" H 6150 5450 50  0001 C CNN
F 1 "GND" H 6155 5527 50  0000 C CNN
F 2 "" H 6150 5700 50  0001 C CNN
F 3 "" H 6150 5700 50  0001 C CNN
	1    6150 5700
	1    0    0    -1  
$EndComp
$Comp
L Device:C C38
U 1 1 5CDA9221
P 6150 5550
F 0 "C38" H 6265 5596 50  0000 L CNN
F 1 "C" H 6265 5505 50  0000 L CNN
F 2 "Capacitor_SMD:C_0402_1005Metric" H 6188 5400 50  0001 C CNN
F 3 "~" H 6150 5550 50  0001 C CNN
	1    6150 5550
	1    0    0    -1  
$EndComp
$Comp
L power:+3.3V #PWR023
U 1 1 5CDA9228
P 6500 5400
AR Path="/5CDA9228" Ref="#PWR023"  Part="1" 
AR Path="/5CC637E9/5CDA9228" Ref="#PWR?"  Part="1" 
AR Path="/5CB24539/5CC637E9/5CDA9228" Ref="#PWR?"  Part="1" 
AR Path="/5CB3ED8C/5CDA9228" Ref="#PWR?"  Part="1" 
F 0 "#PWR023" H 6500 5250 50  0001 C CNN
F 1 "+3.3V" H 6515 5573 50  0000 C CNN
F 2 "" H 6500 5400 50  0001 C CNN
F 3 "" H 6500 5400 50  0001 C CNN
	1    6500 5400
	1    0    0    -1  
$EndComp
$Comp
L power:GND #PWR024
U 1 1 5CDA922E
P 6500 5700
AR Path="/5CDA922E" Ref="#PWR024"  Part="1" 
AR Path="/5CC637E9/5CDA922E" Ref="#PWR?"  Part="1" 
AR Path="/5CB24539/5CC637E9/5CDA922E" Ref="#PWR?"  Part="1" 
AR Path="/5CB3ED8C/5CDA922E" Ref="#PWR?"  Part="1" 
F 0 "#PWR024" H 6500 5450 50  0001 C CNN
F 1 "GND" H 6505 5527 50  0000 C CNN
F 2 "" H 6500 5700 50  0001 C CNN
F 3 "" H 6500 5700 50  0001 C CNN
	1    6500 5700
	1    0    0    -1  
$EndComp
$Comp
L Device:C C41
U 1 1 5CDA9234
P 6500 5550
F 0 "C41" H 6615 5596 50  0000 L CNN
F 1 "C" H 6615 5505 50  0000 L CNN
F 2 "Capacitor_SMD:C_0402_1005Metric" H 6538 5400 50  0001 C CNN
F 3 "~" H 6500 5550 50  0001 C CNN
	1    6500 5550
	1    0    0    -1  
$EndComp
$Comp
L power:+3.3V #PWR029
U 1 1 5CDA923B
P 6800 5400
AR Path="/5CDA923B" Ref="#PWR029"  Part="1" 
AR Path="/5CC637E9/5CDA923B" Ref="#PWR?"  Part="1" 
AR Path="/5CB24539/5CC637E9/5CDA923B" Ref="#PWR?"  Part="1" 
AR Path="/5CB3ED8C/5CDA923B" Ref="#PWR?"  Part="1" 
F 0 "#PWR029" H 6800 5250 50  0001 C CNN
F 1 "+3.3V" H 6815 5573 50  0000 C CNN
F 2 "" H 6800 5400 50  0001 C CNN
F 3 "" H 6800 5400 50  0001 C CNN
	1    6800 5400
	1    0    0    -1  
$EndComp
$Comp
L power:GND #PWR030
U 1 1 5CDA9241
P 6800 5700
AR Path="/5CDA9241" Ref="#PWR030"  Part="1" 
AR Path="/5CC637E9/5CDA9241" Ref="#PWR?"  Part="1" 
AR Path="/5CB24539/5CC637E9/5CDA9241" Ref="#PWR?"  Part="1" 
AR Path="/5CB3ED8C/5CDA9241" Ref="#PWR?"  Part="1" 
F 0 "#PWR030" H 6800 5450 50  0001 C CNN
F 1 "GND" H 6805 5527 50  0000 C CNN
F 2 "" H 6800 5700 50  0001 C CNN
F 3 "" H 6800 5700 50  0001 C CNN
	1    6800 5700
	1    0    0    -1  
$EndComp
$Comp
L Device:C C44
U 1 1 5CDA9247
P 6800 5550
F 0 "C44" H 6915 5596 50  0000 L CNN
F 1 "C" H 6915 5505 50  0000 L CNN
F 2 "Capacitor_SMD:C_0402_1005Metric" H 6838 5400 50  0001 C CNN
F 3 "~" H 6800 5550 50  0001 C CNN
	1    6800 5550
	1    0    0    -1  
$EndComp
$EndSCHEMATC
