EESchema Schematic File Version 4
LIBS:photodiode_readout_circuit_rev3-cache
EELAYER 26 0
EELAYER END
$Descr A4 11693 8268
encoding utf-8
Sheet 2 6
Title ""
Date ""
Rev ""
Comp ""
Comment1 ""
Comment2 ""
Comment3 ""
Comment4 ""
$EndDescr
Wire Wire Line
	4850 1400 4850 2300
Wire Wire Line
	4850 2300 3250 2300
Wire Wire Line
	5450 2400 5450 3350
Wire Wire Line
	4350 4950 4350 2500
Wire Wire Line
	4350 2500 3250 2500
Wire Wire Line
	3250 2600 4100 2600
Wire Wire Line
	4100 2600 4100 6850
Wire Wire Line
	6050 900  6050 2850
Wire Wire Line
	6050 2850 3700 2850
Connection ~ 6050 2850
Wire Wire Line
	3700 2850 3700 4450
Connection ~ 3700 4450
Wire Wire Line
	3700 4450 3700 6350
Wire Wire Line
	5100 4650 4900 4650
Wire Wire Line
	4900 4650 4900 6550
Wire Wire Line
	4900 6550 5100 6550
Wire Wire Line
	5100 6650 4800 6650
Wire Wire Line
	4800 6650 4800 4750
Wire Wire Line
	4800 4750 5100 4750
Wire Wire Line
	5100 4850 4700 4850
Wire Wire Line
	4700 4850 4700 6750
Wire Wire Line
	4700 6750 5100 6750
Wire Wire Line
	4100 6850 5100 6850
Wire Wire Line
	3700 6350 5100 6350
Wire Wire Line
	3700 4450 5100 4450
Wire Wire Line
	4350 4950 5100 4950
Wire Wire Line
	4700 4850 4700 3250
Connection ~ 4700 4850
Wire Wire Line
	4800 4750 4800 3150
Wire Wire Line
	4800 3150 6800 3150
Connection ~ 4800 4750
Wire Wire Line
	4900 4650 4900 3050
Connection ~ 4900 4650
Wire Wire Line
	3250 2400 5450 2400
Wire Wire Line
	6900 1100 6900 3050
Connection ~ 6900 3050
Wire Wire Line
	6700 1300 6700 3250
Wire Wire Line
	4900 3050 6800 3050
Wire Wire Line
	6800 3050 6900 3050
Connection ~ 6800 3150
Wire Wire Line
	6800 1200 6800 3150
Connection ~ 6700 3250
Wire Wire Line
	4700 3250 6700 3250
$Comp
L power:GND #PWR022
U 1 1 5CC50957
P 8750 4050
F 0 "#PWR022" H 8750 3800 50  0001 C CNN
F 1 "GND" H 8755 3877 50  0000 C CNN
F 2 "" H 8750 4050 50  0001 C CNN
F 3 "" H 8750 4050 50  0001 C CNN
	1    8750 4050
	1    0    0    -1  
$EndComp
$Comp
L power:GND #PWR021
U 1 1 5CC509A0
P 8750 2100
F 0 "#PWR021" H 8750 1850 50  0001 C CNN
F 1 "GND" H 8755 1927 50  0000 C CNN
F 2 "" H 8750 2100 50  0001 C CNN
F 3 "" H 8750 2100 50  0001 C CNN
	1    8750 2100
	1    0    0    -1  
$EndComp
$Comp
L power:GND #PWR015
U 1 1 5CC509CC
P 6700 5650
F 0 "#PWR015" H 6700 5400 50  0001 C CNN
F 1 "GND" H 6705 5477 50  0000 C CNN
F 2 "" H 6700 5650 50  0001 C CNN
F 3 "" H 6700 5650 50  0001 C CNN
	1    6700 5650
	1    0    0    -1  
$EndComp
$Comp
L power:GND #PWR016
U 1 1 5CC50AEF
P 6700 7550
F 0 "#PWR016" H 6700 7300 50  0001 C CNN
F 1 "GND" H 6705 7377 50  0000 C CNN
F 2 "" H 6700 7550 50  0001 C CNN
F 3 "" H 6700 7550 50  0001 C CNN
	1    6700 7550
	1    0    0    -1  
$EndComp
$Comp
L power:GND #PWR011
U 1 1 5CC50B09
P 4650 7250
F 0 "#PWR011" H 4650 7000 50  0001 C CNN
F 1 "GND" H 4655 7077 50  0000 C CNN
F 2 "" H 4650 7250 50  0001 C CNN
F 3 "" H 4650 7250 50  0001 C CNN
	1    4650 7250
	1    0    0    -1  
$EndComp
Wire Wire Line
	5100 7250 4650 7250
Wire Wire Line
	5450 3350 7150 3350
Wire Wire Line
	6700 3250 7150 3250
Wire Wire Line
	6800 3150 7150 3150
Wire Wire Line
	6900 3050 7150 3050
Wire Wire Line
	6050 2850 7150 2850
Wire Wire Line
	6050 900  7150 900 
Wire Wire Line
	6900 1100 7150 1100
Wire Wire Line
	6800 1200 7150 1200
Wire Wire Line
	6700 1300 7150 1300
Wire Wire Line
	4850 1400 7150 1400
$Comp
L power:GND #PWR017
U 1 1 5CC58CB6
P 7000 2150
F 0 "#PWR017" H 7000 1900 50  0001 C CNN
F 1 "GND" H 7005 1977 50  0000 C CNN
F 2 "" H 7000 2150 50  0001 C CNN
F 3 "" H 7000 2150 50  0001 C CNN
	1    7000 2150
	1    0    0    -1  
$EndComp
Wire Wire Line
	7000 2150 7000 1800
Wire Wire Line
	7000 1800 7150 1800
$Comp
L power:GND #PWR018
U 1 1 5CC596B0
P 7000 4100
F 0 "#PWR018" H 7000 3850 50  0001 C CNN
F 1 "GND" H 7005 3927 50  0000 C CNN
F 2 "" H 7000 4100 50  0001 C CNN
F 3 "" H 7000 4100 50  0001 C CNN
	1    7000 4100
	1    0    0    -1  
$EndComp
Wire Wire Line
	7000 4100 7000 3750
Wire Wire Line
	7000 3750 7150 3750
$Comp
L power:GND #PWR012
U 1 1 5CC5A10F
P 5000 5700
F 0 "#PWR012" H 5000 5450 50  0001 C CNN
F 1 "GND" H 5005 5527 50  0000 C CNN
F 2 "" H 5000 5700 50  0001 C CNN
F 3 "" H 5000 5700 50  0001 C CNN
	1    5000 5700
	1    0    0    -1  
$EndComp
Wire Wire Line
	5000 5700 5000 5350
$Comp
L power:GND #PWR08
U 1 1 5CC5B8CB
P 1500 3450
F 0 "#PWR08" H 1500 3200 50  0001 C CNN
F 1 "GND" H 1505 3277 50  0000 C CNN
F 2 "" H 1500 3450 50  0001 C CNN
F 3 "" H 1500 3450 50  0001 C CNN
	1    1500 3450
	1    0    0    -1  
$EndComp
Wire Wire Line
	1500 3450 1500 3100
Wire Wire Line
	1500 3100 1650 3100
$Comp
L power:GND #PWR010
U 1 1 5CC5C5FC
P 3250 3450
F 0 "#PWR010" H 3250 3200 50  0001 C CNN
F 1 "GND" H 3255 3277 50  0000 C CNN
F 2 "" H 3250 3450 50  0001 C CNN
F 3 "" H 3250 3450 50  0001 C CNN
	1    3250 3450
	1    0    0    -1  
$EndComp
Wire Wire Line
	3250 3450 3250 3400
Wire Wire Line
	1500 3100 1500 2700
Wire Wire Line
	1500 2700 1650 2700
Connection ~ 1500 3100
Wire Wire Line
	1500 2700 1500 2600
Wire Wire Line
	1500 2600 1650 2600
Connection ~ 1500 2700
Wire Wire Line
	3700 4450 1350 4450
Wire Wire Line
	1350 4450 1350 2200
Wire Wire Line
	1350 2200 1650 2200
NoConn ~ 3250 2700
NoConn ~ 3250 2800
NoConn ~ 3250 2900
NoConn ~ 3250 3000
$Comp
L power:+3.3V #PWR013
U 1 1 5CC64AA2
P 5000 7100
F 0 "#PWR013" H 5000 6950 50  0001 C CNN
F 1 "+3.3V" H 5015 7273 50  0000 C CNN
F 2 "" H 5000 7100 50  0001 C CNN
F 3 "" H 5000 7100 50  0001 C CNN
	1    5000 7100
	1    0    0    -1  
$EndComp
Wire Wire Line
	5100 7350 5000 7350
Wire Wire Line
	5000 7350 5000 7100
$Comp
L power:+3.3V #PWR020
U 1 1 5CC65DD8
P 7150 3650
F 0 "#PWR020" H 7150 3500 50  0001 C CNN
F 1 "+3.3V" H 7165 3823 50  0000 C CNN
F 2 "" H 7150 3650 50  0001 C CNN
F 3 "" H 7150 3650 50  0001 C CNN
	1    7150 3650
	1    0    0    -1  
$EndComp
Wire Wire Line
	7150 3650 7150 3850
$Comp
L power:+3.3V #PWR014
U 1 1 5CC683D3
P 5100 5200
F 0 "#PWR014" H 5100 5050 50  0001 C CNN
F 1 "+3.3V" H 5115 5373 50  0000 C CNN
F 2 "" H 5100 5200 50  0001 C CNN
F 3 "" H 5100 5200 50  0001 C CNN
	1    5100 5200
	1    0    0    -1  
$EndComp
Wire Wire Line
	5000 5350 5100 5350
Wire Wire Line
	5100 5200 5100 5450
$Comp
L power:+3.3V #PWR09
U 1 1 5CC6D5BE
P 1600 2950
F 0 "#PWR09" H 1600 2800 50  0001 C CNN
F 1 "+3.3V" H 1615 3123 50  0000 C CNN
F 2 "" H 1600 2950 50  0001 C CNN
F 3 "" H 1600 2950 50  0001 C CNN
	1    1600 2950
	1    0    0    -1  
$EndComp
Wire Wire Line
	1600 2950 1600 3200
Wire Wire Line
	1600 3200 1650 3200
$Comp
L power:+3.3V #PWR019
U 1 1 5CC70070
P 7100 1700
F 0 "#PWR019" H 7100 1550 50  0001 C CNN
F 1 "+3.3V" H 7115 1873 50  0000 C CNN
F 2 "" H 7100 1700 50  0001 C CNN
F 3 "" H 7100 1700 50  0001 C CNN
	1    7100 1700
	1    0    0    -1  
$EndComp
Wire Wire Line
	7100 1700 7100 1900
Wire Wire Line
	7100 1900 7150 1900
Connection ~ 4900 6550
Wire Wire Line
	3500 6650 4800 6650
Connection ~ 4800 6650
Wire Wire Line
	4700 6750 3500 6750
Connection ~ 4700 6750
Wire Wire Line
	1650 2400 1000 2400
Wire Wire Line
	1000 2500 1650 2500
Wire Wire Line
	1000 2200 1350 2200
Connection ~ 1350 2200
Text HLabel 8750 3150 2    50   BiDi ~ 0
R8
Text HLabel 8750 1500 2    50   BiDi ~ 0
R1
Text HLabel 8750 3550 2    50   BiDi ~ 0
R2
Text HLabel 8750 1700 2    50   BiDi ~ 0
R3
Text HLabel 8750 2950 2    50   BiDi ~ 0
R4
Text HLabel 8750 1300 2    50   BiDi ~ 0
R5
Text HLabel 8750 3350 2    50   BiDi ~ 0
R6
Text HLabel 8750 1100 2    50   BiDi ~ 0
R7
Text HLabel 8750 3450 2    50   BiDi ~ 0
R16
Text HLabel 8750 1200 2    50   BiDi ~ 0
R9
Text HLabel 8750 3050 2    50   BiDi ~ 0
R10
Text HLabel 8750 1400 2    50   BiDi ~ 0
R11
Text HLabel 8750 3250 2    50   BiDi ~ 0
R12
Text HLabel 8750 1000 2    50   BiDi ~ 0
R13
Text HLabel 8750 3650 2    50   BiDi ~ 0
R14
Text HLabel 8750 1600 2    50   BiDi ~ 0
R15
Text HLabel 6700 6650 2    50   BiDi ~ 0
R24
Text HLabel 6700 5050 2    50   BiDi ~ 0
R17
Text HLabel 6700 7050 2    50   BiDi ~ 0
R18
Text HLabel 6700 5250 2    50   BiDi ~ 0
R19
Text HLabel 6700 6450 2    50   BiDi ~ 0
R20
Text HLabel 6700 4850 2    50   BiDi ~ 0
R21
Text HLabel 6700 6850 2    50   BiDi ~ 0
R22
Text HLabel 6700 4650 2    50   BiDi ~ 0
R23
Text HLabel 6700 6950 2    50   BiDi ~ 0
R32
Text HLabel 6700 4750 2    50   BiDi ~ 0
R25
Text HLabel 6700 6550 2    50   BiDi ~ 0
R26
Text HLabel 6700 4950 2    50   BiDi ~ 0
R27
Text HLabel 6700 6750 2    50   BiDi ~ 0
R28
Text HLabel 6700 4550 2    50   BiDi ~ 0
R29
Text HLabel 6700 7150 2    50   BiDi ~ 0
R30
Text HLabel 6700 5150 2    50   BiDi ~ 0
R31
Wire Wire Line
	3500 6550 4900 6550
Text HLabel 3500 6550 0    50   Input ~ 0
SEL0
Text HLabel 3500 6650 0    50   Input ~ 0
SEL1
Text HLabel 3500 6750 0    50   Input ~ 0
SEL2
Text HLabel 1000 2400 0    50   Input ~ 0
SEL3
Text HLabel 1000 2500 0    50   Input ~ 0
SEL4
Text HLabel 1000 2200 0    50   Input ~ 0
EN_NOT
$Comp
L 2019-04-26_21-34-18:ISL84051IVZ U3
U 1 1 5D2D75DF
P 1650 2200
F 0 "U3" H 2450 2587 60  0000 C CNN
F 1 "ISL84051IVZ" H 2450 2481 60  0000 C CNN
F 2 "footprints:ISL84051IVZ" H 2450 2440 60  0001 C CNN
F 3 "" H 1650 2200 60  0000 C CNN
	1    1650 2200
	1    0    0    -1  
$EndComp
$Comp
L 2019-04-26_21-34-18:ISL84051IVZ U6
U 1 1 5D2D7752
P 7150 900
F 0 "U6" H 7950 1287 60  0000 C CNN
F 1 "ISL84051IVZ" H 7950 1181 60  0000 C CNN
F 2 "footprints:ISL84051IVZ" H 7950 1140 60  0001 C CNN
F 3 "" H 7150 900 60  0000 C CNN
	1    7150 900 
	1    0    0    -1  
$EndComp
$Comp
L 2019-04-26_21-34-18:ISL84051IVZ U7
U 1 1 5D2DC7EC
P 7150 2850
F 0 "U7" H 7950 3237 60  0000 C CNN
F 1 "ISL84051IVZ" H 7950 3131 60  0000 C CNN
F 2 "footprints:ISL84051IVZ" H 7950 3090 60  0001 C CNN
F 3 "" H 7150 2850 60  0000 C CNN
	1    7150 2850
	1    0    0    -1  
$EndComp
$Comp
L 2019-04-26_21-34-18:ISL84051IVZ U4
U 1 1 5D2DE2D1
P 5100 4450
F 0 "U4" H 5900 4837 60  0000 C CNN
F 1 "ISL84051IVZ" H 5900 4731 60  0000 C CNN
F 2 "footprints:ISL84051IVZ" H 5900 4690 60  0001 C CNN
F 3 "" H 5100 4450 60  0000 C CNN
	1    5100 4450
	1    0    0    -1  
$EndComp
$Comp
L 2019-04-26_21-34-18:ISL84051IVZ U5
U 1 1 5D2DFD9A
P 5100 6350
F 0 "U5" H 5900 6737 60  0000 C CNN
F 1 "ISL84051IVZ" H 5900 6631 60  0000 C CNN
F 2 "footprints:ISL84051IVZ" H 5900 6590 60  0001 C CNN
F 3 "" H 5100 6350 60  0000 C CNN
	1    5100 6350
	1    0    0    -1  
$EndComp
$EndSCHEMATC
