(module ADG726BSUZ (layer F.Cu)
  (fp_text reference REF** (at 0 0) (layer F.SilkS)
    (effects (font (size 1 1) (thickness .15)))
  )
  (fp_text value SU_48 (at 0 0) (layer F.SilkS)
    (effects (font (size 1 1) (thickness .15)))
  )
  (fp_text user "Copyright 2016 Accelerated Designs. All rights reserved." (at 0 0) (layer Cmts.User)
    (effects (font (size .127 .127) (thickness .002)))
  )
  (fp_text user "*" (at -5.4864 -3.381) (layer F.SilkS)
    (effects (font (size 1 1) (thickness .15)))
  )
  (fp_text user "*" (at -3.1242 -3) (layer F.Fab)
    (effects (font (size 1 1) (thickness .15)))
  )
  (fp_line (start 2.6103 -3.5052) (end 2.8897 -3.5052) (layer F.Fab) (width .1524))
  (fp_line (start 2.8897 -3.5052) (end 2.8897 -4.4958) (layer F.Fab) (width .1524))
  (fp_line (start 2.8897 -4.4958) (end 2.6103 -4.4958) (layer F.Fab) (width .1524))
  (fp_line (start 2.6103 -4.4958) (end 2.6103 -3.5052) (layer F.Fab) (width .1524))
  (fp_line (start 2.1103 -3.5052) (end 2.3897 -3.5052) (layer F.Fab) (width .1524))
  (fp_line (start 2.3897 -3.5052) (end 2.3897 -4.4958) (layer F.Fab) (width .1524))
  (fp_line (start 2.3897 -4.4958) (end 2.1103 -4.4958) (layer F.Fab) (width .1524))
  (fp_line (start 2.1103 -4.4958) (end 2.1103 -3.5052) (layer F.Fab) (width .1524))
  (fp_line (start 1.6103 -3.5052) (end 1.8897 -3.5052) (layer F.Fab) (width .1524))
  (fp_line (start 1.8897 -3.5052) (end 1.8897 -4.4958) (layer F.Fab) (width .1524))
  (fp_line (start 1.8897 -4.4958) (end 1.6103 -4.4958) (layer F.Fab) (width .1524))
  (fp_line (start 1.6103 -4.4958) (end 1.6103 -3.5052) (layer F.Fab) (width .1524))
  (fp_line (start 1.1103 -3.5052) (end 1.3897 -3.5052) (layer F.Fab) (width .1524))
  (fp_line (start 1.3897 -3.5052) (end 1.3897 -4.4958) (layer F.Fab) (width .1524))
  (fp_line (start 1.3897 -4.4958) (end 1.1103 -4.4958) (layer F.Fab) (width .1524))
  (fp_line (start 1.1103 -4.4958) (end 1.1103 -3.5052) (layer F.Fab) (width .1524))
  (fp_line (start .6103 -3.5052) (end .8897 -3.5052) (layer F.Fab) (width .1524))
  (fp_line (start .8897 -3.5052) (end .8897 -4.4958) (layer F.Fab) (width .1524))
  (fp_line (start .8897 -4.4958) (end .6103 -4.4958) (layer F.Fab) (width .1524))
  (fp_line (start .6103 -4.4958) (end .6103 -3.5052) (layer F.Fab) (width .1524))
  (fp_line (start .1103 -3.5052) (end .3897 -3.5052) (layer F.Fab) (width .1524))
  (fp_line (start .3897 -3.5052) (end .3897 -4.4958) (layer F.Fab) (width .1524))
  (fp_line (start .3897 -4.4958) (end .1103 -4.4958) (layer F.Fab) (width .1524))
  (fp_line (start .1103 -4.4958) (end .1103 -3.5052) (layer F.Fab) (width .1524))
  (fp_line (start -.3897 -3.5052) (end -.1103 -3.5052) (layer F.Fab) (width .1524))
  (fp_line (start -.1103 -3.5052) (end -.1103 -4.4958) (layer F.Fab) (width .1524))
  (fp_line (start -.1103 -4.4958) (end -.3897 -4.4958) (layer F.Fab) (width .1524))
  (fp_line (start -.3897 -4.4958) (end -.3897 -3.5052) (layer F.Fab) (width .1524))
  (fp_line (start -.8897 -3.5052) (end -.6103 -3.5052) (layer F.Fab) (width .1524))
  (fp_line (start -.6103 -3.5052) (end -.6103 -4.4958) (layer F.Fab) (width .1524))
  (fp_line (start -.6103 -4.4958) (end -.8897 -4.4958) (layer F.Fab) (width .1524))
  (fp_line (start -.8897 -4.4958) (end -.8897 -3.5052) (layer F.Fab) (width .1524))
  (fp_line (start -1.3897 -3.5052) (end -1.1103 -3.5052) (layer F.Fab) (width .1524))
  (fp_line (start -1.1103 -3.5052) (end -1.1103 -4.4958) (layer F.Fab) (width .1524))
  (fp_line (start -1.1103 -4.4958) (end -1.3897 -4.4958) (layer F.Fab) (width .1524))
  (fp_line (start -1.3897 -4.4958) (end -1.3897 -3.5052) (layer F.Fab) (width .1524))
  (fp_line (start -1.8897 -3.5052) (end -1.6103 -3.5052) (layer F.Fab) (width .1524))
  (fp_line (start -1.6103 -3.5052) (end -1.6103 -4.4958) (layer F.Fab) (width .1524))
  (fp_line (start -1.6103 -4.4958) (end -1.8897 -4.4958) (layer F.Fab) (width .1524))
  (fp_line (start -1.8897 -4.4958) (end -1.8897 -3.5052) (layer F.Fab) (width .1524))
  (fp_line (start -2.3897 -3.5052) (end -2.1103 -3.5052) (layer F.Fab) (width .1524))
  (fp_line (start -2.1103 -3.5052) (end -2.1103 -4.4958) (layer F.Fab) (width .1524))
  (fp_line (start -2.1103 -4.4958) (end -2.3897 -4.4958) (layer F.Fab) (width .1524))
  (fp_line (start -2.3897 -4.4958) (end -2.3897 -3.5052) (layer F.Fab) (width .1524))
  (fp_line (start -2.8897 -3.5052) (end -2.6103 -3.5052) (layer F.Fab) (width .1524))
  (fp_line (start -2.6103 -3.5052) (end -2.6103 -4.4958) (layer F.Fab) (width .1524))
  (fp_line (start -2.6103 -4.4958) (end -2.8897 -4.4958) (layer F.Fab) (width .1524))
  (fp_line (start -2.8897 -4.4958) (end -2.8897 -3.5052) (layer F.Fab) (width .1524))
  (fp_line (start -3.5052 -2.6103) (end -3.5052 -2.8897) (layer F.Fab) (width .1524))
  (fp_line (start -3.5052 -2.8897) (end -4.4958 -2.8897) (layer F.Fab) (width .1524))
  (fp_line (start -4.4958 -2.8897) (end -4.4958 -2.6103) (layer F.Fab) (width .1524))
  (fp_line (start -4.4958 -2.6103) (end -3.5052 -2.6103) (layer F.Fab) (width .1524))
  (fp_line (start -3.5052 -2.1103) (end -3.5052 -2.3897) (layer F.Fab) (width .1524))
  (fp_line (start -3.5052 -2.3897) (end -4.4958 -2.3897) (layer F.Fab) (width .1524))
  (fp_line (start -4.4958 -2.3897) (end -4.4958 -2.1103) (layer F.Fab) (width .1524))
  (fp_line (start -4.4958 -2.1103) (end -3.5052 -2.1103) (layer F.Fab) (width .1524))
  (fp_line (start -3.5052 -1.6103) (end -3.5052 -1.8897) (layer F.Fab) (width .1524))
  (fp_line (start -3.5052 -1.8897) (end -4.4958 -1.8897) (layer F.Fab) (width .1524))
  (fp_line (start -4.4958 -1.8897) (end -4.4958 -1.6103) (layer F.Fab) (width .1524))
  (fp_line (start -4.4958 -1.6103) (end -3.5052 -1.6103) (layer F.Fab) (width .1524))
  (fp_line (start -3.5052 -1.1103) (end -3.5052 -1.3897) (layer F.Fab) (width .1524))
  (fp_line (start -3.5052 -1.3897) (end -4.4958 -1.3897) (layer F.Fab) (width .1524))
  (fp_line (start -4.4958 -1.3897) (end -4.4958 -1.1103) (layer F.Fab) (width .1524))
  (fp_line (start -4.4958 -1.1103) (end -3.5052 -1.1103) (layer F.Fab) (width .1524))
  (fp_line (start -3.5052 -.6103) (end -3.5052 -.8897) (layer F.Fab) (width .1524))
  (fp_line (start -3.5052 -.8897) (end -4.4958 -.8897) (layer F.Fab) (width .1524))
  (fp_line (start -4.4958 -.8897) (end -4.4958 -.6103) (layer F.Fab) (width .1524))
  (fp_line (start -4.4958 -.6103) (end -3.5052 -.6103) (layer F.Fab) (width .1524))
  (fp_line (start -3.5052 -.1103) (end -3.5052 -.3897) (layer F.Fab) (width .1524))
  (fp_line (start -3.5052 -.3897) (end -4.4958 -.3897) (layer F.Fab) (width .1524))
  (fp_line (start -4.4958 -.3897) (end -4.4958 -.1103) (layer F.Fab) (width .1524))
  (fp_line (start -4.4958 -.1103) (end -3.5052 -.1103) (layer F.Fab) (width .1524))
  (fp_line (start -3.5052 .3897) (end -3.5052 .1103) (layer F.Fab) (width .1524))
  (fp_line (start -3.5052 .1103) (end -4.4958 .1103) (layer F.Fab) (width .1524))
  (fp_line (start -4.4958 .1103) (end -4.4958 .3897) (layer F.Fab) (width .1524))
  (fp_line (start -4.4958 .3897) (end -3.5052 .3897) (layer F.Fab) (width .1524))
  (fp_line (start -3.5052 .8897) (end -3.5052 .6103) (layer F.Fab) (width .1524))
  (fp_line (start -3.5052 .6103) (end -4.4958 .6103) (layer F.Fab) (width .1524))
  (fp_line (start -4.4958 .6103) (end -4.4958 .8897) (layer F.Fab) (width .1524))
  (fp_line (start -4.4958 .8897) (end -3.5052 .8897) (layer F.Fab) (width .1524))
  (fp_line (start -3.5052 1.3897) (end -3.5052 1.1103) (layer F.Fab) (width .1524))
  (fp_line (start -3.5052 1.1103) (end -4.4958 1.1103) (layer F.Fab) (width .1524))
  (fp_line (start -4.4958 1.1103) (end -4.4958 1.3897) (layer F.Fab) (width .1524))
  (fp_line (start -4.4958 1.3897) (end -3.5052 1.3897) (layer F.Fab) (width .1524))
  (fp_line (start -3.5052 1.8897) (end -3.5052 1.6103) (layer F.Fab) (width .1524))
  (fp_line (start -3.5052 1.6103) (end -4.4958 1.6103) (layer F.Fab) (width .1524))
  (fp_line (start -4.4958 1.6103) (end -4.4958 1.8897) (layer F.Fab) (width .1524))
  (fp_line (start -4.4958 1.8897) (end -3.5052 1.8897) (layer F.Fab) (width .1524))
  (fp_line (start -3.5052 2.3897) (end -3.5052 2.1103) (layer F.Fab) (width .1524))
  (fp_line (start -3.5052 2.1103) (end -4.4958 2.1103) (layer F.Fab) (width .1524))
  (fp_line (start -4.4958 2.1103) (end -4.4958 2.3897) (layer F.Fab) (width .1524))
  (fp_line (start -4.4958 2.3897) (end -3.5052 2.3897) (layer F.Fab) (width .1524))
  (fp_line (start -3.5052 2.8897) (end -3.5052 2.6103) (layer F.Fab) (width .1524))
  (fp_line (start -3.5052 2.6103) (end -4.4958 2.6103) (layer F.Fab) (width .1524))
  (fp_line (start -4.4958 2.6103) (end -4.4958 2.8897) (layer F.Fab) (width .1524))
  (fp_line (start -4.4958 2.8897) (end -3.5052 2.8897) (layer F.Fab) (width .1524))
  (fp_line (start -2.6103 3.5052) (end -2.8897 3.5052) (layer F.Fab) (width .1524))
  (fp_line (start -2.8897 3.5052) (end -2.8897 4.4958) (layer F.Fab) (width .1524))
  (fp_line (start -2.8897 4.4958) (end -2.6103 4.4958) (layer F.Fab) (width .1524))
  (fp_line (start -2.6103 4.4958) (end -2.6103 3.5052) (layer F.Fab) (width .1524))
  (fp_line (start -2.1103 3.5052) (end -2.3897 3.5052) (layer F.Fab) (width .1524))
  (fp_line (start -2.3897 3.5052) (end -2.3897 4.4958) (layer F.Fab) (width .1524))
  (fp_line (start -2.3897 4.4958) (end -2.1103 4.4958) (layer F.Fab) (width .1524))
  (fp_line (start -2.1103 4.4958) (end -2.1103 3.5052) (layer F.Fab) (width .1524))
  (fp_line (start -1.6103 3.5052) (end -1.8897 3.5052) (layer F.Fab) (width .1524))
  (fp_line (start -1.8897 3.5052) (end -1.8897 4.4958) (layer F.Fab) (width .1524))
  (fp_line (start -1.8897 4.4958) (end -1.6103 4.4958) (layer F.Fab) (width .1524))
  (fp_line (start -1.6103 4.4958) (end -1.6103 3.5052) (layer F.Fab) (width .1524))
  (fp_line (start -1.1103 3.5052) (end -1.3897 3.5052) (layer F.Fab) (width .1524))
  (fp_line (start -1.3897 3.5052) (end -1.3897 4.4958) (layer F.Fab) (width .1524))
  (fp_line (start -1.3897 4.4958) (end -1.1103 4.4958) (layer F.Fab) (width .1524))
  (fp_line (start -1.1103 4.4958) (end -1.1103 3.5052) (layer F.Fab) (width .1524))
  (fp_line (start -.6103 3.5052) (end -.8897 3.5052) (layer F.Fab) (width .1524))
  (fp_line (start -.8897 3.5052) (end -.8897 4.4958) (layer F.Fab) (width .1524))
  (fp_line (start -.8897 4.4958) (end -.6103 4.4958) (layer F.Fab) (width .1524))
  (fp_line (start -.6103 4.4958) (end -.6103 3.5052) (layer F.Fab) (width .1524))
  (fp_line (start -.1103 3.5052) (end -.3897 3.5052) (layer F.Fab) (width .1524))
  (fp_line (start -.3897 3.5052) (end -.3897 4.4958) (layer F.Fab) (width .1524))
  (fp_line (start -.3897 4.4958) (end -.1103 4.4958) (layer F.Fab) (width .1524))
  (fp_line (start -.1103 4.4958) (end -.1103 3.5052) (layer F.Fab) (width .1524))
  (fp_line (start .3897 3.5052) (end .1103 3.5052) (layer F.Fab) (width .1524))
  (fp_line (start .1103 3.5052) (end .1103 4.4958) (layer F.Fab) (width .1524))
  (fp_line (start .1103 4.4958) (end .3897 4.4958) (layer F.Fab) (width .1524))
  (fp_line (start .3897 4.4958) (end .3897 3.5052) (layer F.Fab) (width .1524))
  (fp_line (start .8897 3.5052) (end .6103 3.5052) (layer F.Fab) (width .1524))
  (fp_line (start .6103 3.5052) (end .6103 4.4958) (layer F.Fab) (width .1524))
  (fp_line (start .6103 4.4958) (end .8897 4.4958) (layer F.Fab) (width .1524))
  (fp_line (start .8897 4.4958) (end .8897 3.5052) (layer F.Fab) (width .1524))
  (fp_line (start 1.3897 3.5052) (end 1.1103 3.5052) (layer F.Fab) (width .1524))
  (fp_line (start 1.1103 3.5052) (end 1.1103 4.4958) (layer F.Fab) (width .1524))
  (fp_line (start 1.1103 4.4958) (end 1.3897 4.4958) (layer F.Fab) (width .1524))
  (fp_line (start 1.3897 4.4958) (end 1.3897 3.5052) (layer F.Fab) (width .1524))
  (fp_line (start 1.8897 3.5052) (end 1.6103 3.5052) (layer F.Fab) (width .1524))
  (fp_line (start 1.6103 3.5052) (end 1.6103 4.4958) (layer F.Fab) (width .1524))
  (fp_line (start 1.6103 4.4958) (end 1.8897 4.4958) (layer F.Fab) (width .1524))
  (fp_line (start 1.8897 4.4958) (end 1.8897 3.5052) (layer F.Fab) (width .1524))
  (fp_line (start 2.3897 3.5052) (end 2.1103 3.5052) (layer F.Fab) (width .1524))
  (fp_line (start 2.1103 3.5052) (end 2.1103 4.4958) (layer F.Fab) (width .1524))
  (fp_line (start 2.1103 4.4958) (end 2.3897 4.4958) (layer F.Fab) (width .1524))
  (fp_line (start 2.3897 4.4958) (end 2.3897 3.5052) (layer F.Fab) (width .1524))
  (fp_line (start 2.8897 3.5052) (end 2.6103 3.5052) (layer F.Fab) (width .1524))
  (fp_line (start 2.6103 3.5052) (end 2.6103 4.4958) (layer F.Fab) (width .1524))
  (fp_line (start 2.6103 4.4958) (end 2.8897 4.4958) (layer F.Fab) (width .1524))
  (fp_line (start 2.8897 4.4958) (end 2.8897 3.5052) (layer F.Fab) (width .1524))
  (fp_line (start 3.5052 2.6103) (end 3.5052 2.8897) (layer F.Fab) (width .1524))
  (fp_line (start 3.5052 2.8897) (end 4.4958 2.8897) (layer F.Fab) (width .1524))
  (fp_line (start 4.4958 2.8897) (end 4.4958 2.6103) (layer F.Fab) (width .1524))
  (fp_line (start 4.4958 2.6103) (end 3.5052 2.6103) (layer F.Fab) (width .1524))
  (fp_line (start 3.5052 2.1103) (end 3.5052 2.3897) (layer F.Fab) (width .1524))
  (fp_line (start 3.5052 2.3897) (end 4.4958 2.3897) (layer F.Fab) (width .1524))
  (fp_line (start 4.4958 2.3897) (end 4.4958 2.1103) (layer F.Fab) (width .1524))
  (fp_line (start 4.4958 2.1103) (end 3.5052 2.1103) (layer F.Fab) (width .1524))
  (fp_line (start 3.5052 1.6103) (end 3.5052 1.8897) (layer F.Fab) (width .1524))
  (fp_line (start 3.5052 1.8897) (end 4.4958 1.8897) (layer F.Fab) (width .1524))
  (fp_line (start 4.4958 1.8897) (end 4.4958 1.6103) (layer F.Fab) (width .1524))
  (fp_line (start 4.4958 1.6103) (end 3.5052 1.6103) (layer F.Fab) (width .1524))
  (fp_line (start 3.5052 1.1103) (end 3.5052 1.3897) (layer F.Fab) (width .1524))
  (fp_line (start 3.5052 1.3897) (end 4.4958 1.3897) (layer F.Fab) (width .1524))
  (fp_line (start 4.4958 1.3897) (end 4.4958 1.1103) (layer F.Fab) (width .1524))
  (fp_line (start 4.4958 1.1103) (end 3.5052 1.1103) (layer F.Fab) (width .1524))
  (fp_line (start 3.5052 .6103) (end 3.5052 .8897) (layer F.Fab) (width .1524))
  (fp_line (start 3.5052 .8897) (end 4.4958 .8897) (layer F.Fab) (width .1524))
  (fp_line (start 4.4958 .8897) (end 4.4958 .6103) (layer F.Fab) (width .1524))
  (fp_line (start 4.4958 .6103) (end 3.5052 .6103) (layer F.Fab) (width .1524))
  (fp_line (start 3.5052 .1103) (end 3.5052 .3897) (layer F.Fab) (width .1524))
  (fp_line (start 3.5052 .3897) (end 4.4958 .3897) (layer F.Fab) (width .1524))
  (fp_line (start 4.4958 .3897) (end 4.4958 .1103) (layer F.Fab) (width .1524))
  (fp_line (start 4.4958 .1103) (end 3.5052 .1103) (layer F.Fab) (width .1524))
  (fp_line (start 3.5052 -.3897) (end 3.5052 -.1103) (layer F.Fab) (width .1524))
  (fp_line (start 3.5052 -.1103) (end 4.4958 -.1103) (layer F.Fab) (width .1524))
  (fp_line (start 4.4958 -.1103) (end 4.4958 -.3897) (layer F.Fab) (width .1524))
  (fp_line (start 4.4958 -.3897) (end 3.5052 -.3897) (layer F.Fab) (width .1524))
  (fp_line (start 3.5052 -.8897) (end 3.5052 -.6103) (layer F.Fab) (width .1524))
  (fp_line (start 3.5052 -.6103) (end 4.4958 -.6103) (layer F.Fab) (width .1524))
  (fp_line (start 4.4958 -.6103) (end 4.4958 -.8897) (layer F.Fab) (width .1524))
  (fp_line (start 4.4958 -.8897) (end 3.5052 -.8897) (layer F.Fab) (width .1524))
  (fp_line (start 3.5052 -1.3897) (end 3.5052 -1.1103) (layer F.Fab) (width .1524))
  (fp_line (start 3.5052 -1.1103) (end 4.4958 -1.1103) (layer F.Fab) (width .1524))
  (fp_line (start 4.4958 -1.1103) (end 4.4958 -1.3897) (layer F.Fab) (width .1524))
  (fp_line (start 4.4958 -1.3897) (end 3.5052 -1.3897) (layer F.Fab) (width .1524))
  (fp_line (start 3.5052 -1.8897) (end 3.5052 -1.6103) (layer F.Fab) (width .1524))
  (fp_line (start 3.5052 -1.6103) (end 4.4958 -1.6103) (layer F.Fab) (width .1524))
  (fp_line (start 4.4958 -1.6103) (end 4.4958 -1.8897) (layer F.Fab) (width .1524))
  (fp_line (start 4.4958 -1.8897) (end 3.5052 -1.8897) (layer F.Fab) (width .1524))
  (fp_line (start 3.5052 -2.3897) (end 3.5052 -2.1103) (layer F.Fab) (width .1524))
  (fp_line (start 3.5052 -2.1103) (end 4.4958 -2.1103) (layer F.Fab) (width .1524))
  (fp_line (start 4.4958 -2.1103) (end 4.4958 -2.3897) (layer F.Fab) (width .1524))
  (fp_line (start 4.4958 -2.3897) (end 3.5052 -2.3897) (layer F.Fab) (width .1524))
  (fp_line (start 3.5052 -2.8897) (end 3.5052 -2.6103) (layer F.Fab) (width .1524))
  (fp_line (start 3.5052 -2.6103) (end 4.4958 -2.6103) (layer F.Fab) (width .1524))
  (fp_line (start 4.4958 -2.6103) (end 4.4958 -2.8897) (layer F.Fab) (width .1524))
  (fp_line (start 4.4958 -2.8897) (end 3.5052 -2.8897) (layer F.Fab) (width .1524))
  (fp_line (start -3.5052 -2.2352) (end -2.2352 -3.5052) (layer F.Fab) (width .1524))
  (fp_line (start -3.6322 3.6322) (end -3.19704 3.6322) (layer F.SilkS) (width .1524))
  (fp_line (start 3.6322 3.6322) (end 3.6322 3.19704) (layer F.SilkS) (width .1524))
  (fp_line (start 3.6322 -3.6322) (end 3.19704 -3.6322) (layer F.SilkS) (width .1524))
  (fp_line (start -3.6322 -3.6322) (end -3.6322 -3.19704) (layer F.SilkS) (width .1524))
  (fp_line (start -3.6322 3.19704) (end -3.6322 3.6322) (layer F.SilkS) (width .1524))
  (fp_line (start -3.5052 3.5052) (end 3.5052 3.5052) (layer F.Fab) (width .1524))
  (fp_line (start 3.5052 3.5052) (end 3.5052 3.5052) (layer F.Fab) (width .1524))
  (fp_line (start 3.5052 3.5052) (end 3.5052 -3.5052) (layer F.Fab) (width .1524))
  (fp_line (start 3.5052 -3.5052) (end 3.5052 -3.5052) (layer F.Fab) (width .1524))
  (fp_line (start 3.5052 -3.5052) (end -3.5052 -3.5052) (layer F.Fab) (width .1524))
  (fp_line (start -3.5052 -3.5052) (end -3.5052 -3.5052) (layer F.Fab) (width .1524))
  (fp_line (start -3.5052 -3.5052) (end -3.5052 3.5052) (layer F.Fab) (width .1524))
  (fp_line (start -3.5052 3.5052) (end -3.5052 3.5052) (layer F.Fab) (width .1524))
  (fp_line (start 3.19704 3.6322) (end 3.6322 3.6322) (layer F.SilkS) (width .1524))
  (fp_line (start 3.6322 -3.19704) (end 3.6322 -3.6322) (layer F.SilkS) (width .1524))
  (fp_line (start -3.19704 -3.6322) (end -3.6322 -3.6322) (layer F.SilkS) (width .1524))
  (fp_line (start -5.3594 1.559499) (end -5.3594 1.940499) (layer F.SilkS) (width .1524))
  (fp_line (start -5.3594 1.940499) (end -5.1054 1.940499) (layer F.SilkS) (width .1524))
  (fp_line (start -5.1054 1.940499) (end -5.1054 1.559499) (layer F.SilkS) (width .1524))
  (fp_line (start -5.1054 1.559499) (end -5.3594 1.559499) (layer F.SilkS) (width .1524))
  (fp_line (start .559501 5.1054) (end .559501 5.3594) (layer F.SilkS) (width .1524))
  (fp_line (start .559501 5.3594) (end .940501 5.3594) (layer F.SilkS) (width .1524))
  (fp_line (start .940501 5.3594) (end .940501 5.1054) (layer F.SilkS) (width .1524))
  (fp_line (start .940501 5.1054) (end .559501 5.1054) (layer F.SilkS) (width .1524))
  (fp_line (start 5.3594 .059499) (end 5.3594 .4405) (layer F.SilkS) (width .1524))
  (fp_line (start 5.3594 .4405) (end 5.1054 .4405) (layer F.SilkS) (width .1524))
  (fp_line (start 5.1054 .4405) (end 5.1054 .059499) (layer F.SilkS) (width .1524))
  (fp_line (start 5.1054 .059499) (end 5.3594 .059499) (layer F.SilkS) (width .1524))
  (fp_line (start 1.0595 -5.1054) (end 1.0595 -5.3594) (layer F.SilkS) (width .1524))
  (fp_line (start 1.0595 -5.3594) (end 1.4405 -5.3594) (layer F.SilkS) (width .1524))
  (fp_line (start 1.4405 -5.3594) (end 1.4405 -5.1054) (layer F.SilkS) (width .1524))
  (fp_line (start 1.4405 -5.1054) (end 1.0595 -5.1054) (layer F.SilkS) (width .1524))
  (fp_line (start -3.7592 3.7592) (end -3.7592 3.1183) (layer F.CrtYd) (width .1524))
  (fp_line (start -3.7592 3.1183) (end -5.1054 3.1183) (layer F.CrtYd) (width .1524))
  (fp_line (start -5.1054 3.1183) (end -5.1054 -3.1183) (layer F.CrtYd) (width .1524))
  (fp_line (start -5.1054 -3.1183) (end -3.7592 -3.1183) (layer F.CrtYd) (width .1524))
  (fp_line (start -3.7592 -3.1183) (end -3.7592 -3.7592) (layer F.CrtYd) (width .1524))
  (fp_line (start -3.7592 -3.7592) (end -3.1183 -3.7592) (layer F.CrtYd) (width .1524))
  (fp_line (start -3.1183 -3.7592) (end -3.1183 -5.1054) (layer F.CrtYd) (width .1524))
  (fp_line (start -3.1183 -5.1054) (end 3.1183 -5.1054) (layer F.CrtYd) (width .1524))
  (fp_line (start 3.1183 -5.1054) (end 3.1183 -3.7592) (layer F.CrtYd) (width .1524))
  (fp_line (start 3.1183 -3.7592) (end 3.7592 -3.7592) (layer F.CrtYd) (width .1524))
  (fp_line (start 3.7592 -3.7592) (end 3.7592 -3.1183) (layer F.CrtYd) (width .1524))
  (fp_line (start 3.7592 -3.1183) (end 5.1054 -3.1183) (layer F.CrtYd) (width .1524))
  (fp_line (start 5.1054 -3.1183) (end 5.1054 3.1183) (layer F.CrtYd) (width .1524))
  (fp_line (start 5.1054 3.1183) (end 3.7592 3.1183) (layer F.CrtYd) (width .1524))
  (fp_line (start 3.7592 3.1183) (end 3.7592 3.7592) (layer F.CrtYd) (width .1524))
  (fp_line (start 3.7592 3.7592) (end 3.1183 3.7592) (layer F.CrtYd) (width .1524))
  (fp_line (start 3.1183 3.7592) (end 3.1183 5.1054) (layer F.CrtYd) (width .1524))
  (fp_line (start 3.1183 5.1054) (end -3.1183 5.1054) (layer F.CrtYd) (width .1524))
  (fp_line (start -3.1183 5.1054) (end -3.1183 3.7592) (layer F.CrtYd) (width .1524))
  (fp_line (start -3.1183 3.7592) (end -3.7592 3.7592) (layer F.CrtYd) (width .1524))
  (pad 1 smd rect (at -4.1148 -2.75 90) (size .2286 1.4732) (layers F.Cu F.Paste F.Mask))
  (pad 2 smd rect (at -4.1148 -2.250001 90) (size .2286 1.4732) (layers F.Cu F.Paste F.Mask))
  (pad 3 smd rect (at -4.1148 -1.749999 90) (size .2286 1.4732) (layers F.Cu F.Paste F.Mask))
  (pad 4 smd rect (at -4.1148 -1.25 90) (size .2286 1.4732) (layers F.Cu F.Paste F.Mask))
  (pad 5 smd rect (at -4.1148 -.750001 90) (size .2286 1.4732) (layers F.Cu F.Paste F.Mask))
  (pad 6 smd rect (at -4.1148 -.25 90) (size .2286 1.4732) (layers F.Cu F.Paste F.Mask))
  (pad 7 smd rect (at -4.1148 .25 90) (size .2286 1.4732) (layers F.Cu F.Paste F.Mask))
  (pad 8 smd rect (at -4.1148 .750001 90) (size .2286 1.4732) (layers F.Cu F.Paste F.Mask))
  (pad 9 smd rect (at -4.1148 1.25 90) (size .2286 1.4732) (layers F.Cu F.Paste F.Mask))
  (pad 10 smd rect (at -4.1148 1.749999 90) (size .2286 1.4732) (layers F.Cu F.Paste F.Mask))
  (pad 11 smd rect (at -4.1148 2.250001 90) (size .2286 1.4732) (layers F.Cu F.Paste F.Mask))
  (pad 12 smd rect (at -4.1148 2.75 90) (size .2286 1.4732) (layers F.Cu F.Paste F.Mask))
  (pad 13 smd rect (at -2.75 4.1148) (size .2286 1.4732) (layers F.Cu F.Paste F.Mask))
  (pad 14 smd rect (at -2.250001 4.1148) (size .2286 1.4732) (layers F.Cu F.Paste F.Mask))
  (pad 15 smd rect (at -1.749999 4.1148) (size .2286 1.4732) (layers F.Cu F.Paste F.Mask))
  (pad 16 smd rect (at -1.25 4.1148) (size .2286 1.4732) (layers F.Cu F.Paste F.Mask))
  (pad 17 smd rect (at -.750001 4.1148) (size .2286 1.4732) (layers F.Cu F.Paste F.Mask))
  (pad 18 smd rect (at -.25 4.1148) (size .2286 1.4732) (layers F.Cu F.Paste F.Mask))
  (pad 19 smd rect (at .25 4.1148) (size .2286 1.4732) (layers F.Cu F.Paste F.Mask))
  (pad 20 smd rect (at .750001 4.1148) (size .2286 1.4732) (layers F.Cu F.Paste F.Mask))
  (pad 21 smd rect (at 1.25 4.1148) (size .2286 1.4732) (layers F.Cu F.Paste F.Mask))
  (pad 22 smd rect (at 1.749999 4.1148) (size .2286 1.4732) (layers F.Cu F.Paste F.Mask))
  (pad 23 smd rect (at 2.250001 4.1148) (size .2286 1.4732) (layers F.Cu F.Paste F.Mask))
  (pad 24 smd rect (at 2.75 4.1148) (size .2286 1.4732) (layers F.Cu F.Paste F.Mask))
  (pad 25 smd rect (at 4.1148 2.75 90) (size .2286 1.4732) (layers F.Cu F.Paste F.Mask))
  (pad 26 smd rect (at 4.1148 2.250001 90) (size .2286 1.4732) (layers F.Cu F.Paste F.Mask))
  (pad 27 smd rect (at 4.1148 1.749999 90) (size .2286 1.4732) (layers F.Cu F.Paste F.Mask))
  (pad 28 smd rect (at 4.1148 1.25 90) (size .2286 1.4732) (layers F.Cu F.Paste F.Mask))
  (pad 29 smd rect (at 4.1148 .750001 90) (size .2286 1.4732) (layers F.Cu F.Paste F.Mask))
  (pad 30 smd rect (at 4.1148 .25 90) (size .2286 1.4732) (layers F.Cu F.Paste F.Mask))
  (pad 31 smd rect (at 4.1148 -.25 90) (size .2286 1.4732) (layers F.Cu F.Paste F.Mask))
  (pad 32 smd rect (at 4.1148 -.750001 90) (size .2286 1.4732) (layers F.Cu F.Paste F.Mask))
  (pad 33 smd rect (at 4.1148 -1.25 90) (size .2286 1.4732) (layers F.Cu F.Paste F.Mask))
  (pad 34 smd rect (at 4.1148 -1.749999 90) (size .2286 1.4732) (layers F.Cu F.Paste F.Mask))
  (pad 35 smd rect (at 4.1148 -2.250001 90) (size .2286 1.4732) (layers F.Cu F.Paste F.Mask))
  (pad 36 smd rect (at 4.1148 -2.75 90) (size .2286 1.4732) (layers F.Cu F.Paste F.Mask))
  (pad 37 smd rect (at 2.75 -4.1148) (size .2286 1.4732) (layers F.Cu F.Paste F.Mask))
  (pad 38 smd rect (at 2.250001 -4.1148) (size .2286 1.4732) (layers F.Cu F.Paste F.Mask))
  (pad 39 smd rect (at 1.749999 -4.1148) (size .2286 1.4732) (layers F.Cu F.Paste F.Mask))
  (pad 40 smd rect (at 1.25 -4.1148) (size .2286 1.4732) (layers F.Cu F.Paste F.Mask))
  (pad 41 smd rect (at .750001 -4.1148) (size .2286 1.4732) (layers F.Cu F.Paste F.Mask))
  (pad 42 smd rect (at .25 -4.1148) (size .2286 1.4732) (layers F.Cu F.Paste F.Mask))
  (pad 43 smd rect (at -.25 -4.1148) (size .2286 1.4732) (layers F.Cu F.Paste F.Mask))
  (pad 44 smd rect (at -.750001 -4.1148) (size .2286 1.4732) (layers F.Cu F.Paste F.Mask))
  (pad 45 smd rect (at -1.25 -4.1148) (size .2286 1.4732) (layers F.Cu F.Paste F.Mask))
  (pad 46 smd rect (at -1.749999 -4.1148) (size .2286 1.4732) (layers F.Cu F.Paste F.Mask))
  (pad 47 smd rect (at -2.250001 -4.1148) (size .2286 1.4732) (layers F.Cu F.Paste F.Mask))
  (pad 48 smd rect (at -2.75 -4.1148) (size .2286 1.4732) (layers F.Cu F.Paste F.Mask))
)
